<?xml version="1.0" encoding="utf-8"?>
<!-- Generator: Adobe Illustrator 15.0.0, SVG Export Plug-In . SVG Version: 6.00 Build 0)  -->
<!DOCTYPE svg PUBLIC "-//W3C//DTD SVG 1.1//EN" "http://www.w3.org/Graphics/SVG/1.1/DTD/svg11.dtd" [
	<!ENTITY ns_flows "http://ns.adobe.com/Flows/1.0/">
	<!ENTITY ns_extend "http://ns.adobe.com/Extensibility/1.0/">
	<!ENTITY ns_ai "http://ns.adobe.com/AdobeIllustrator/10.0/">
	<!ENTITY ns_graphs "http://ns.adobe.com/Graphs/1.0/">
	<!ENTITY ns_vars "http://ns.adobe.com/Variables/1.0/">
	<!ENTITY ns_imrep "http://ns.adobe.com/ImageReplacement/1.0/">
	<!ENTITY ns_sfw "http://ns.adobe.com/SaveForWeb/1.0/">
	<!ENTITY ns_custom "http://ns.adobe.com/GenericCustomNamespace/1.0/">
	<!ENTITY ns_adobe_xpath "http://ns.adobe.com/XPath/1.0/">
]>
<svg version="1.1"
	 xmlns:x="&ns_extend;" xmlns:i="&ns_ai;" xmlns:graph="&ns_graphs;" i:viewOrigin="-0.5 900.5" i:rulerOrigin="0.5 -210" i:pageBounds="-0.5 900.5 599.5 210"
	 xmlns="http://www.w3.org/2000/svg" xmlns:xlink="http://www.w3.org/1999/xlink" xmlns:a="http://ns.adobe.com/AdobeSVGViewerExtensions/3.0/"
	 x="0px" y="0px" width="600px" height="690.5px" viewBox="0 0 600 690.5" style="enable-background:new 0 0 600 690.5;"
	 xml:space="preserve">
<style type="text/css">
<![CDATA[
	.st0{fill:#FFFFFF;}
	.st1{fill-rule:evenodd;clip-rule:evenodd;fill:#96C93D;}
]]>
</style>
<metadata>
	<variableSets  xmlns="http://ns.adobe.com/Variables/1.0/">
		<variableSet  locked="none" varSetName="binding1">
			<variables></variables>
			<v:sampleDataSets  xmlns:v="http://ns.adobe.com/Variables/1.0/" xmlns="http://ns.adobe.com/GenericCustomNamespace/1.0/">
				</v:sampleDataSets>
		</variableSet>
	</variableSets>
</metadata>
<g id="Layer_1" i:knockout="Off" i:layer="yes" i:dimmedPercent="50" i:rgbTrio="#4F008000FFFF">
	<g>
		<g>
			<defs>
				<rect id="SVGID_1_" x="-49.657" y="1.251" width="699.314" height="687.998"/>
			</defs>
			<clipPath id="SVGID_2_">
				<use xlink:href="#SVGID_1_"  style="overflow:visible;"/>
			</clipPath>
			<g transform="matrix(1 0 0 1 4.966556e-006 -6.361758e-008)" style="clip-path:url(#SVGID_2_);">
				
					<switch id="SVGID_4_" i:objectNS="&ns_imrep;" i:objectType="replaceable-image" transform="matrix(2.2632 0 0 2.2632 -49.6572 1.251)">
					<foreignObject overflow="visible" requiredExtensions="&ns_imrep;" x="0" y="0" width="309" height="304">
						
							<imageReplacement  xmlns="&ns_imrep;" x="0" y="0" width="309" height="304" placementMethod="ratio" align="center" valign="middle" refWidth="309" refHeight="304">
						</imageReplacement>
						<x:targetRef  xlink:href="#SVGID_3_" />
					</foreignObject>
					
						<image style="overflow:visible;" width="309" height="304" id="SVGID_3_" xlink:href="39180100.png"  i:alphaIsShape="yes" i:knockout="Off">
					</image>
				</switch>
			</g>
		</g>
		<path i:knockout="Off" class="st1" d="M566.219,329.858c0,147.214-119.342,266.544-266.547,266.544
			c-147.218,0-266.554-119.33-266.554-266.544c0-147.209,119.335-266.549,266.554-266.549
			C446.877,63.309,566.219,182.648,566.219,329.858"/>
	</g>
	<g i:knockout="Off">
		<g i:knockout="Off">
			<path class="st0" d="M456.187,298.72l-24.427-4.143c-2.544-8.215-5.815-16.139-9.813-23.7l14.394-20.136
				c6.107-8.578,5.16-20.282-2.326-27.697l-21.663-21.664c-4.071-4.07-9.45-6.325-15.193-6.325c-4.507,0-8.796,1.382-12.431,4
				l-20.21,14.393c-7.851-4.144-16.065-7.561-24.571-10.104l-4.07-24.135c-1.745-10.395-10.688-17.956-21.229-17.956h-30.604
				c-10.541,0-19.482,7.561-21.227,17.956l-4.217,24.717c-8.142,2.544-16.065,5.889-23.626,9.959l-19.991-14.394
				c-3.635-2.617-7.997-3.999-12.503-3.999c-5.744,0-11.196,2.254-15.194,6.326l-21.736,21.663
				c-7.415,7.415-8.433,19.12-2.327,27.697l14.54,20.428c-3.998,7.633-7.197,15.557-9.668,23.771l-24.135,4.071
				c-10.396,1.745-17.956,10.687-17.956,21.228v30.604c0,10.541,7.561,19.483,17.956,21.229l24.717,4.216
				c2.544,8.142,5.887,16.066,9.959,23.627l-14.321,19.917c-6.107,8.578-5.162,20.282,2.326,27.698l21.663,21.663
				c4.071,4.071,9.451,6.324,15.194,6.324c4.507,0,8.796-1.381,12.431-3.999l20.427-14.538c7.342,3.853,15.048,6.979,22.972,9.45
				l4.071,24.426c1.744,10.396,10.687,17.956,21.227,17.956h30.677c10.541,0,19.483-7.561,21.228-17.956l4.144-24.426
				c8.214-2.544,16.138-5.814,23.698-9.813l20.137,14.394c3.636,2.617,7.997,3.997,12.505,3.997l0,0
				c5.742,0,11.122-2.253,15.192-6.324l21.664-21.662c7.415-7.415,8.434-19.12,2.326-27.699l-14.393-20.209
				c3.998-7.632,7.341-15.556,9.813-23.697l24.427-4.071c10.396-1.745,17.956-10.687,17.956-21.229v-30.604
				C474.143,309.407,466.582,300.466,456.187,298.72z M454.514,350.552c0,0.947-0.653,1.745-1.598,1.891l-30.534,5.09
				c-3.853,0.654-6.904,3.489-7.851,7.197c-2.762,10.685-6.979,20.935-12.648,30.457c-1.964,3.346-1.818,7.489,0.436,10.688
				l17.956,25.299c0.509,0.727,0.436,1.817-0.219,2.471l-21.663,21.663c-0.509,0.51-1.019,0.582-1.381,0.582
				c-0.436,0-0.8-0.144-1.09-0.363l-25.227-17.955c-3.126-2.254-7.343-2.399-10.686-0.437c-9.524,5.67-19.772,9.887-30.46,12.649
				c-3.78,0.945-6.615,4.071-7.197,7.851l-5.161,30.533c-0.146,0.944-0.943,1.598-1.891,1.598h-30.604
				c-0.944,0-1.744-0.653-1.89-1.598l-5.089-30.533c-0.654-3.854-3.49-6.905-7.196-7.851c-10.396-2.691-20.428-6.834-29.806-12.213
				c-1.527-0.873-3.272-1.309-4.943-1.309c-1.962,0-3.999,0.582-5.67,1.816l-25.443,18.102c-0.364,0.219-0.727,0.363-1.091,0.363
				c-0.291,0-0.872-0.072-1.381-0.582l-21.664-21.663c-0.654-0.654-0.727-1.673-0.217-2.471l17.883-25.08
				c2.253-3.198,2.399-7.415,0.436-10.759c-5.67-9.451-10.032-19.701-12.794-30.387c-1.018-3.709-4.071-6.542-7.851-7.196
				l-30.75-5.235c-0.945-0.146-1.6-0.944-1.6-1.891v-30.604c0-0.945,0.654-1.744,1.6-1.891l30.314-5.088
				c3.853-0.654,6.979-3.49,7.923-7.27c2.69-10.686,6.834-21.008,12.431-30.532c1.963-3.344,1.746-7.488-0.509-10.613
				l-18.101-25.444c-0.509-0.728-0.436-1.817,0.219-2.472l21.662-21.663c0.509-0.509,1.019-0.582,1.382-0.582
				c0.437,0,0.799,0.146,1.09,0.364l25.08,17.884c3.2,2.253,7.416,2.398,10.76,0.436c9.45-5.671,19.701-10.032,30.387-12.795
				c3.708-1.018,6.542-4.07,7.197-7.851l5.234-30.751c0.146-0.945,0.945-1.6,1.89-1.6h30.605c0.946,0,1.745,0.654,1.891,1.6
				l5.089,30.314c0.653,3.853,3.488,6.979,7.269,7.923c10.978,2.763,21.445,7.052,31.188,12.795
				c3.345,1.962,7.487,1.816,10.686-0.437l25.082-18.029c0.362-0.218,0.726-0.364,1.089-0.364c0.29,0,0.873,0.073,1.383,0.582
				l21.662,21.664c0.654,0.655,0.729,1.672,0.219,2.472l-17.957,25.225c-2.253,3.126-2.398,7.343-0.437,10.687
				c5.67,9.522,9.887,19.773,12.65,30.459c0.944,3.78,4.07,6.615,7.852,7.197l30.532,5.161c0.944,0.146,1.6,0.945,1.6,1.89v30.604
				H454.514z"/>
			<path class="st0" d="M300.034,260.119c-41.436,0-75.094,33.659-75.094,75.095s33.658,75.094,75.094,75.094
				c41.438,0,75.096-33.657,75.096-75.094S341.473,260.119,300.034,260.119z M300.034,390.681
				c-30.604,0-55.466-24.862-55.466-55.467c0-30.605,24.862-55.467,55.466-55.467c30.605,0,55.468,24.862,55.468,55.467
				C355.502,365.818,330.64,390.681,300.034,390.681z"/>
		</g>
	</g>
</g>
</svg>
