<?xml version="1.0" encoding="UTF-8"?>
<kml xmlns="http://www.opengis.net/kml/2.2">
	<Document>
		<Style id="Green">
			<IconStyle> 
				<Icon>
					<href>https://bytebucket.org/luisyepes/kmls/raw/5e8851ea1670d88b4debc5488aa4e1b31e3ff921/icons/calidadDelAireverde-01-01.png</href>
				</Icon>
			</IconStyle>
			<BalloonStyle>
				<text>
					<![CDATA[ 
					<div style = "text-align: center;font-family: 'Roboto', sans-serif; max-heigth:250px; max-width:300px">
						<div style = "background-color:#18AE53">
							<img src = "https://bytebucket.org/luisyepes/kmls/raw/32c2262cc3c7fc111c75cef8aa92e75258b462c4/icons/iconoCalidadDelAire-01.png" style = "max-width: 50px;max-heigth:50px;padding-top:20px">
							<h2 style="color:white;max-width:300px"> Buena | Sin riesgo </h2>
						</div>	
						<p style= "color:#8B8C8B;max-width:300px"> La calidad del aire es satisfactoria y existe poco o ningún riesgo para la salud </p>
						<hr style="border-top: 3px double #8c8b8b">
						<h4 style="color:#18AE53"> Recomendaciones </h4>
						<p style= "color:#8B8C8B;max-width:300px">Se puede realizar cualquier actividad al aire libre</p>
						<div class="flex-container" style="display:-webkit-flex;display:flex;width:300px;background-color: transparent;justify-content: center">
							<div class="flex-item" style="background-color:transparent;width:100px;height:100px">
								<img src="https://bytebucket.org/luisyepes/kmls/raw/856ba686f70c897016cc43c6a7443dbfa64e4fce/icons/iconosCalidadDelAire-05.png" style = "padding-right:1px;max-width: 50px;max-heigth:50px">
							</div>
					
							<div class="flex-item" style="background-color:transparent;width:100px;height:100px">
								<img src="https://bytebucket.org/luisyepes/kmls/raw/856ba686f70c897016cc43c6a7443dbfa64e4fce/icons/iconosCalidadDelAire-06.png" style = "padding-left:1px;padding-right:1px;max-width: 50px;max-heigth:50px">
							</div>
					
							<div class="flex-item" style="background-color:transparent;border-heigth: 10px;width:100px;height:100px">
								<img src="https://bytebucket.org/luisyepes/kmls/raw/856ba686f70c897016cc43c6a7443dbfa64e4fce/icons/iconosCalidadDelAire-07.png" style = "padding-left:1px;padding-right:1px;max-width: 50px;max-heigth:50px">
							</div>
					
							<div class="flex-item" style="background-color:transparent;width:100px;height:100px">
								<img src="https://bytebucket.org/luisyepes/kmls/raw/856ba686f70c897016cc43c6a7443dbfa64e4fce/icons/iconosCalidadDelAire-08.png" style = "padding-left:1px;max-width: 50px;max-heigth:50px">
							</div>
						</div>
					</div>
					]]> 
				</text>
			</BalloonStyle>
		</Style>

		<Style id="Yellow">
		<IconStyle> 
			<Icon>
				<href>https://bytebucket.org/luisyepes/kmls/raw/5e8851ea1670d88b4debc5488aa4e1b31e3ff921/icons/calidadDelAireAmarillo-01.png</href>
			</Icon>
		</IconStyle>
		<BalloonStyle>
			<text>
				<![CDATA[ 
				<div style = "text-align: center; max-heigth:250px; max-width:300px">
					<div style = "background-color:	#E8C600">
						<img src = "https://bytebucket.org/luisyepes/kmls/raw/32c2262cc3c7fc111c75cef8aa92e75258b462c4/icons/iconoCalidadDelAire-01.png" style = "max-width: 50px;max-heigth:50px;padding-top:20px">
						<h2 style="color:white;max-width:300px;"> Moderada | Aceptable </h2>
					</div>	
					<p style= "color:#8B8C8B;max-width:300px"> La calidad del aire es aceptable, sin embargo, pueden presentarse síntomas moderados en personas insualmente sensibles a algunos contaminantes</p>
					<hr style="border-top: 3px double #8c8b8b">
					<h4 style="color:#E8C600;"> Recomendaciones </h4>
					<p style= "color:#8B8C8B;max-width:300px">Las personas que son extremadamente sensibles a la contaminación, deben considerar limitar los esfuerzos prolongados al aire libre</p>
					<div class="flex-container" style="display:-webkit-flex;display:flex;width:300px;background-color: transparent;justify-content: center">
						<div class="flex-item" style="background-color:transparent;width:100px;height:100px">
							<img src="https://bytebucket.org/luisyepes/kmls/raw/856ba686f70c897016cc43c6a7443dbfa64e4fce/icons/iconosCalidadDelAire-01.png" style = "padding-right:1px;max-width: 50px;max-heigth:50px">
						</div>
				
						<div class="flex-item" style="background-color:transparent;width:100px;height:100px">
							<img src="https://bytebucket.org/luisyepes/kmls/raw/856ba686f70c897016cc43c6a7443dbfa64e4fce/icons/iconosCalidadDelAire-02.png" style = "padding-left:1px;padding-right:1px;max-width: 50px;max-heigth:50px">
						</div>
				
						<div class="flex-item" style="background-color:transparent;border-heigth: 10px;width:100px;height:100px">
							<img src="https://bytebucket.org/luisyepes/kmls/raw/856ba686f70c897016cc43c6a7443dbfa64e4fce/icons/iconosCalidadDelAire-03.png" style = "padding-left:1px;padding-right:1px;max-width: 50px;max-heigth:50px">
						</div>
				
						<div class="flex-item" style="background-color:transparent;width:100px;height:100px">
							<img src="https://bytebucket.org/luisyepes/kmls/raw/856ba686f70c897016cc43c6a7443dbfa64e4fce/icons/iconosCalidadDelAire-04.png" style = "padding-left:1px;max-width: 50px;max-heigth:50px">
						</div>
					</div>
				</div>
				]]> 
			</text>
		</BalloonStyle>
	</Style>
		<Folder>
			<Placemark>
				<name>Estación #31</name>
				<description>Corporacion La Sallista</description>
 				<styleUrl>#Green</styleUrl> 
				<Point>
					<coordinates>-75.6386261,6.0990806,0</coordinates>
				</Point>
			</Placemark>
			<Placemark>
				<name>Estación #48</name>
				<description>Estacion Metro La Estrella</description>
 				<styleUrl>#Yellow</styleUrl> 
				<Point>
					<coordinates>-75.6274872,6.1523128,0</coordinates>
				</Point>
			</Placemark>
			<Placemark>
				<name>Estación #38</name>
				<description>Colegio Concejo de Itagui</description>
 				<styleUrl>#Yellow</styleUrl> 
				<Point>
					<coordinates>-75.6443558, 6.1684971,0</coordinates>
				</Point>
			</Placemark>
			<Placemark>
				<name>Estación #28</name>
				<description>Casa de Justicia Itagui</description>
 				<styleUrl>#Yellow</styleUrl> 
				<Point>
					<coordinates>-75.59720609999999, 6.1856666,0</coordinates>
				</Point>
			</Placemark>
			<Placemark>
				<name>Estación #44</name>
				<description>Tanques La YE</description>
 				<styleUrl>#Green</styleUrl> 
				<Point>
					<coordinates>-75.55063629999999, 6.1825418,0</coordinates>
				</Point>
			</Placemark>
			<Placemark>
				<name></name>
				<description>Politécnico JIC</description>
 				<styleUrl>#Green</styleUrl> 
				<Point>
					<coordinates>-75.577766, 6.208975,0</coordinates>
				</Point>
			</Placemark>
			<Placemark>
				<name>Estación #12</name>
				<description>Museo de Antioquia</description>
 				<styleUrl>#Green</styleUrl> 
				<Point>
					<coordinates>-75.5695801, 6.2525611, 0</coordinates>
				</Point>
			</Placemark>
			<Placemark>
				<name>Estación #25</name>
				<description>Universidad Nacional de Colombia</description>
 				<styleUrl>#Yellow</styleUrl> 
				<Point>
					<coordinates>-75.5770035, 6.2633696, 0</coordinates>
				</Point>
			</Placemark>
			<Placemark>
				<name></name>
				<description>Secretaría Ambiente de Bello</description>
 				<styleUrl>#Green</styleUrl> 
				<Point>
					<coordinates>-75.556,6.3315, 0</coordinates>
				</Point>
			</Placemark>
			<Placemark>
				<name>Estación #3</name>
				<description>SOS Aburra Norte</description>
 				<styleUrl>#Green</styleUrl> 
				<Point>
					<coordinates>-75.4509125,6.3790379, 0</coordinates>
				</Point>
			</Placemark>
		</Folder>
	</Document>
</kml>
			