<?xml version="1.0" encoding="UTF-8"?> 
<kml xmlns="http://earth.google.com/kml/2.0"> <Document>

<Placemark> 
 <Polygon> <outerBoundaryIs>  <LinearRing>  
  <coordinates>
 -75.245533,6.501512 -75.245591,6.501620 -75.245624,6.501704 -75.245672,6.501842 -75.245700,6.501964 -75.245675,6.502051 -75.245618,6.502076 -75.245474,6.502073 -75.245355,6.502138 -75.245284,6.502239 -75.245268,6.502322 -75.245280,6.502414 -75.245262,6.502521 -75.245223,6.502609 -75.245190,6.502699 -75.245172,6.502850 -75.245168,6.502919 -75.245184,6.502999 -75.245226,6.503142 -75.245281,6.503229 -75.245485,6.503473 -75.245565,6.503594 -75.245625,6.503674 -75.245910,6.503886 -75.246514,6.504187 -75.246585,6.504232 -75.246643,6.504283 -75.246693,6.504352 -75.246719,6.504406 -75.246749,6.504508 -75.246778,6.504622 -75.246819,6.504718 -75.246861,6.504766 -75.246992,6.504849 -75.247155,6.504946 -75.247339,6.505038 -75.247381,6.505065 -75.247523,6.505142 -75.247614,6.505225 -75.247706,6.505325 -75.247773,6.505382 -75.247915,6.505425 -75.248004,6.505475 -75.248115,6.505594 -75.248178,6.505745 -75.248167,6.505841 -75.248133,6.505991 -75.248104,6.506124 -75.248091,6.506253 -75.248098,6.506398 -75.248119,6.506489 -75.248161,6.506576 -75.248242,6.506700 -75.248330,6.506823 -75.248424,6.506896 -75.248523,6.506951 -75.248620,6.506994 -75.248758,6.507065 -75.248885,6.507133 -75.249043,6.507194 -75.249167,6.507230 -75.249342,6.507299 -75.249487,6.507364 -75.249620,6.507426 -75.249733,6.507428 -75.250105,6.507436 -75.250736,6.507421 -75.250823,6.507423 -75.250899,6.507450 -75.251009,6.507506 -75.251106,6.507557 -75.251217,6.507623 -75.251318,6.507693 -75.251428,6.507723 -75.251605,6.507715 -75.251770,6.507703 -75.251924,6.507693 -75.252036,6.507708 -75.252176,6.507731 -75.252314,6.507737 -75.252411,6.507746 -75.252693,6.507775 -75.252826,6.507755 -75.252961,6.507735 -75.253138,6.507717 -75.253275,6.507689 -75.253349,6.507701 -75.253446,6.507759 -75.253528,6.507798 -75.253636,6.507809 -75.253733,6.507786 -75.253850,6.507744 -75.253960,6.507716 -75.254058,6.507683 -75.254178,6.507703 -75.254295,6.507742 -75.254378,6.507766 -75.254499,6.507782 -75.254653,6.507812 -75.255026,6.507870 -75.255687,6.507880 -75.255819,6.507870 -75.255932,6.507859 -75.256093,6.507841 -75.256297,6.507815 -75.256467,6.507805 -75.256691,6.507846 -75.256868,6.507916 -75.256970,6.507927 -75.257121,6.507975 -75.257301,6.508050 -75.257489,6.508120 -75.257666,6.508208 -75.257832,6.508313 -75.257972,6.508395 -75.258131,6.508468 -75.258235,6.508513 -75.258356,6.508520 -75.258483,6.508466 -75.258613,6.508393 -75.258752,6.508288 -75.258881,6.508212 -75.259043,6.508113 -75.259153,6.508055 -75.259236,6.508023 -75.260035,6.507767 -75.260159,6.507727 -75.260221,6.507712 -75.260359,6.507682 -75.260524,6.507663 -75.260643,6.507653 -75.260806,6.507660 -75.260994,6.507679 -75.261160,6.507692 -75.261256,6.507707 -75.261314,6.507709 -75.261419,6.507720 -75.261605,6.507722 -75.261686,6.507765 -75.261757,6.507809 -75.261859,6.507852 -75.261987,6.507938 -75.262102,6.508023 -75.262217,6.508085 -75.262383,6.508076 -75.262532,6.508090 -75.262706,6.508094 -75.262856,6.508093 -75.262966,6.508085 -75.263113,6.508087 -75.263266,6.508098 -75.263268,6.508070 -75.263271,6.508036 -75.263270,6.507891 -75.263263,6.507742 -75.263256,6.507696 -75.263239,6.507564 -75.263217,6.507380 -75.263230,6.507179 -75.263275,6.507030 -75.263334,6.506874 -75.263407,6.506734 -75.263420,6.506705 -75.263466,6.506596 -75.263502,6.506478 -75.263571,6.506311 -75.263604,6.506171 -75.263645,6.506010 -75.263646,6.505983 -75.263653,6.505817 -75.263693,6.505626 -75.263870,6.505204 -75.264045,6.505035 -75.264152,6.504932 -75.264291,6.504797 -75.264362,6.504715 -75.264401,6.504672 -75.264469,6.504592 -75.264533,6.504564 -75.264636,6.504519 -75.264702,6.504464 -75.264728,6.504425 -75.264741,6.504407 -75.264782,6.504347 -75.264869,6.504245 -75.264934,6.504156 -75.264953,6.504131 -75.264972,6.504105 -75.264991,6.504034 -75.264999,6.504003 -75.265006,6.503981 -75.265033,6.503889 -75.265049,6.503830 -75.265071,6.503756 -75.265100,6.503604 -75.265129,6.503453 -75.265140,6.503293 -75.265172,6.503103 -75.265182,6.502933 -75.265205,6.502836 -75.265248,6.502781 -75.265314,6.502723 -75.265355,6.502685 -75.265378,6.502663 -75.265398,6.502645 -75.265440,6.502605 -75.265464,6.502554 -75.265479,6.502523 -75.265487,6.502484 -75.265512,6.502364 -75.265519,6.502209 -75.265503,6.502020 -75.265487,6.501897 -75.265443,6.501728 -75.265434,6.501710 -75.265416,6.501673 -75.265383,6.501603 -75.265299,6.501496 -75.265214,6.501403 -75.265133,6.501322 -75.265011,6.501212 -75.264937,6.501084 -75.264886,6.501025 -75.264914,6.500928 -75.265021,6.500646 -75.265190,6.500203 -75.265224,6.500112 -75.265309,6.500036 -75.265387,6.499961 -75.265506,6.499899 -75.265666,6.499823 -75.265735,6.499804 -75.265824,6.499725 -75.265945,6.499686 -75.266037,6.499667 -75.266133,6.499611 -75.266169,6.499575 -75.266188,6.499556 -75.266205,6.499521 -75.266227,6.499475 -75.266237,6.499439 -75.266249,6.499394 -75.266258,6.499361 -75.266267,6.499255 -75.266250,6.499197 -75.266216,6.499157 -75.266213,6.499104 -75.266252,6.498966 -75.266320,6.498828 -75.266397,6.498660 -75.266427,6.498545 -75.266493,6.498446 -75.266576,6.498177 -75.266595,6.498131 -75.266636,6.498073 -75.266709,6.497988 -75.266768,6.497917 -75.266827,6.497824 -75.266886,6.497721 -75.266902,6.497648 -75.266924,6.497563 -75.266936,6.497517 -75.266951,6.497452 -75.266968,6.497376 -75.266974,6.497266 -75.266969,6.497174 -75.266963,6.497134 -75.266950,6.497058 -75.266927,6.496968 -75.266903,6.496883 -75.266855,6.496739 -75.266642,6.496494 -75.266624,6.496489 -75.266403,6.496423 -75.266364,6.496411 -75.266199,6.496384 -75.266065,6.496348 -75.266016,6.496338 -75.265983,6.496331 -75.265962,6.496328 -75.265886,6.496314 -75.265842,6.496282 -75.265824,6.496268 -75.265783,6.496238 -75.265760,6.496221 -75.265651,6.496117 -75.265569,6.496029 -75.265455,6.495948 -75.265347,6.495908 -75.265269,6.495805 -75.265261,6.495773 -75.265250,6.495729 -75.265256,6.495675 -75.265259,6.495644 -75.265275,6.495573 -75.265279,6.495552 -75.265292,6.495521 -75.265323,6.495451 -75.265334,6.495396 -75.265330,6.495334 -75.265328,6.495306 -75.265326,6.495213 -75.265332,6.495109 -75.265339,6.495037 -75.265356,6.494872 -75.265347,6.494757 -75.265330,6.494654 -75.265302,6.494526 -75.265297,6.494374 -75.265285,6.494274 -75.265282,6.494247 -75.265280,6.494225 -75.265277,6.494197 -75.265268,6.494106 -75.265226,6.493998 -75.265178,6.493909 -75.265125,6.493812 -75.265093,6.493768 -75.265052,6.493704 -75.265013,6.493608 -75.264927,6.493456 -75.264880,6.493371 -75.264860,6.493334 -75.264823,6.493240 -75.264808,6.493211 -75.264791,6.493179 -75.264749,6.493103 -75.264781,6.493067 -75.264814,6.493031 -75.264852,6.493001 -75.264891,6.492972 -75.265004,6.492890 -75.265116,6.492823 -75.265165,6.492801 -75.265212,6.492780 -75.265387,6.492729 -75.265486,6.492681 -75.265531,6.492659 -75.265630,6.492600 -75.265740,6.492507 -75.265770,6.492477 -75.265808,6.492441 -75.265866,6.492383 -75.265960,6.492314 -75.266038,6.492249 -75.266173,6.492167 -75.266354,6.492075 -75.266503,6.492017 -75.266581,6.491988 -75.266735,6.491932 -75.266815,6.491910 -75.266923,6.491888 -75.267164,6.492009 -75.267700,6.492280 -75.267781,6.492313 -75.267831,6.492305 -75.267884,6.492297 -75.267924,6.492279 -75.268001,6.492243 -75.268147,6.492199 -75.268297,6.492171 -75.268503,6.492161 -75.268629,6.492141 -75.268666,6.492136 -75.268749,6.492129 -75.268880,6.492126 -75.269029,6.492111 -75.269132,6.492107 -75.269236,6.492104 -75.269319,6.492116 -75.269401,6.492128 -75.269564,6.492165 -75.269734,6.492160 -75.269868,6.492169 -75.269969,6.492178 -75.270054,6.492214 -75.270168,6.492287 -75.270288,6.492344 -75.270408,6.492351 -75.270522,6.492326 -75.270630,6.492304 -75.270724,6.492267 -75.270917,6.492276 -75.271082,6.492317 -75.271246,6.492359 -75.271384,6.492342 -75.271505,6.492313 -75.271608,6.492281 -75.271691,6.492255 -75.271824,6.492223 -75.271911,6.492212 -75.271999,6.492220 -75.272068,6.492247 -75.272107,6.492303 -75.272125,6.492327 -75.272177,6.492373 -75.272288,6.492442 -75.272383,6.492487 -75.272468,6.492524 -75.272541,6.492545 -75.272649,6.492525 -75.272734,6.492482 -75.272856,6.492433 -75.272998,6.492406 -75.273053,6.492472 -75.273090,6.492594 -75.273105,6.492634 -75.273120,6.492674 -75.273254,6.492715 -75.273278,6.492730 -75.273307,6.492741 -75.273390,6.492751 -75.273474,6.492760 -75.273614,6.492760 -75.273680,6.492761 -75.273745,6.492762 -75.273796,6.492760 -75.273897,6.492754 -75.274034,6.492731 -75.274135,6.492704 -75.274212,6.492671 -75.274253,6.492652 -75.274326,6.492606 -75.274417,6.492510 -75.274461,6.492429 -75.274468,6.492411 -75.274486,6.492363 -75.274390,6.491914 -75.274342,6.491752 -75.274415,6.491705 -75.274477,6.491691 -75.274516,6.491681 -75.274555,6.491671 -75.274691,6.491638 -75.274731,6.491626 -75.274771,6.491615 -75.274888,6.491591 -75.274938,6.491585 -75.274987,6.491579 -75.275020,6.491583 -75.275053,6.491586 -75.275191,6.491627 -75.275359,6.491666 -75.275472,6.491683 -75.275573,6.491690 -75.275676,6.491632 -75.275716,6.491604 -75.275756,6.491575 -75.275795,6.491485 -75.275832,6.491403 -75.275848,6.491368 -75.275857,6.491346 -75.275904,6.491235 -75.275973,6.491113 -75.276012,6.491056 -75.276031,6.491030 -75.276110,6.490930 -75.276132,6.490905 -75.276172,6.490859 -75.276262,6.490825 -75.276349,6.490805 -75.276434,6.490801 -75.276469,6.490802 -75.276505,6.490803 -75.276629,6.490797 -75.276753,6.490791 -75.277350,6.490623 -75.277419,6.490601 -75.277536,6.490577 -75.277671,6.490596 -75.277793,6.490629 -75.277987,6.490658 -75.278170,6.490646 -75.278333,6.490623 -75.278438,6.490607 -75.278491,6.490599 -75.278620,6.490576 -75.278678,6.490571 -75.278737,6.490565 -75.278874,6.490596 -75.278997,6.490651 -75.279102,6.490706 -75.279298,6.490769 -75.279329,6.490785 -75.279394,6.490820 -75.279423,6.490837 -75.279463,6.490859 -75.279493,6.490877 -75.279546,6.490894 -75.279601,6.490911 -75.279758,6.490934 -75.279833,6.490926 -75.279863,6.490904 -75.279925,6.490859 -75.280038,6.490797 -75.280092,6.490777 -75.280148,6.490758 -75.280244,6.490744 -75.280291,6.490774 -75.280349,6.490810 -75.280488,6.490960 -75.280503,6.490972 -75.280658,6.491096 -75.280750,6.491200 -75.280698,6.491286 -75.280684,6.491404 -75.280693,6.491517 -75.280702,6.491560 -75.280708,6.491588 -75.280708,6.491645 -75.280358,6.492223 -75.280379,6.492293 -75.280399,6.492375 -75.280409,6.492440 -75.280413,6.492468 -75.280430,6.492559 -75.280423,6.492621 -75.280394,6.492641 -75.280353,6.492674 -75.280329,6.492695 -75.280246,6.492758 -75.280185,6.492842 -75.280187,6.492964 -75.280205,6.493003 -75.280215,6.493026 -75.280226,6.493059 -75.280252,6.493131 -75.280269,6.493164 -75.280296,6.493218 -75.280333,6.493271 -75.280348,6.493293 -75.280385,6.493341 -75.280427,6.493395 -75.280487,6.493455 -75.280547,6.493524 -75.280611,6.493599 -75.280661,6.493661 -75.280688,6.493694 -75.280715,6.493727 -75.280733,6.493743 -75.280769,6.493777 -75.280710,6.493869 -75.280708,6.493920 -75.280695,6.493981 -75.280652,6.494028 -75.280635,6.494128 -75.280683,6.494173 -75.280751,6.494302 -75.280793,6.494407 -75.280795,6.494471 -75.280776,6.494532 -75.280763,6.494599 -75.280758,6.494620 -75.280771,6.494730 -75.280782,6.494808 -75.280801,6.494868 -75.280810,6.494897 -75.280841,6.494948 -75.280897,6.495043 -75.280962,6.495149 -75.280988,6.495190 -75.281086,6.495263 -75.281133,6.495284 -75.281177,6.495305 -75.281220,6.495304 -75.281264,6.495303 -75.281339,6.495280 -75.281449,6.495270 -75.281533,6.495232 -75.281615,6.495224 -75.281690,6.495184 -75.281812,6.495250 -75.281870,6.495308 -75.281935,6.495375 -75.282043,6.495442 -75.282142,6.495524 -75.282192,6.495583 -75.282292,6.495690 -75.282380,6.495784 -75.282620,6.496118 -75.282713,6.496248 -75.282898,6.496353 -75.282965,6.496386 -75.282997,6.496405 -75.283029,6.496424 -75.283102,6.496500 -75.283175,6.496597 -75.283213,6.496702 -75.283242,6.496842 -75.283264,6.496982 -75.283228,6.497069 -75.283169,6.497172 -75.283155,6.497253 -75.283210,6.497342 -75.283266,6.497469 -75.283338,6.497546 -75.283390,6.497610 -75.283414,6.497639 -75.283441,6.497683 -75.283467,6.497727 -75.283498,6.497863 -75.283507,6.497947 -75.283538,6.498105 -75.283628,6.498241 -75.283648,6.498270 -75.283746,6.498414 -75.283790,6.498522 -75.283818,6.498571 -75.283852,6.498628 -75.283885,6.498670 -75.283946,6.498747 -75.283997,6.498820 -75.284016,6.498893 -75.284024,6.498920 -75.284036,6.498947 -75.284062,6.499002 -75.284140,6.499085 -75.284290,6.499367 -75.284486,6.499600 -75.284681,6.499832 -75.284754,6.499859 -75.284839,6.499911 -75.284914,6.500037 -75.284973,6.500191 -75.285001,6.500247 -75.285013,6.500271 -75.285057,6.500372 -75.285077,6.500419 -75.285100,6.500544 -75.285114,6.500747 -75.285108,6.500843 -75.285102,6.500936 -75.285106,6.501094 -75.285143,6.501181 -75.285152,6.501202 -75.285167,6.501237 -75.285196,6.501303 -75.285286,6.501456 -75.285367,6.501521 -75.285432,6.501511 -75.285548,6.501475 -75.285665,6.501456 -75.285765,6.501532 -75.285864,6.501704 -75.285947,6.501929 -75.285989,6.502019 -75.286007,6.502058 -75.286018,6.502082 -75.286045,6.502145 -75.286113,6.502285 -75.286144,6.502347 -75.286159,6.502379 -75.286228,6.502462 -75.286328,6.502516 -75.286532,6.502752 -75.286880,6.503301 -75.286940,6.503391 -75.287026,6.503478 -75.287115,6.503610 -75.287195,6.503735 -75.287264,6.503876 -75.287370,6.504036 -75.287447,6.504104 -75.287548,6.504192 -75.287599,6.504207 -75.287651,6.504223 -75.287759,6.504261 -75.287879,6.504297 -75.288037,6.504346 -75.288105,6.504394 -75.288133,6.504413 -75.288186,6.504481 -75.288208,6.504557 -75.288219,6.504597 -75.288301,6.504611 -75.288413,6.504633 -75.288490,6.504665 -75.288547,6.504689 -75.288736,6.504765 -75.288910,6.504833 -75.289052,6.504905 -75.289145,6.504966 -75.289171,6.505157 -75.289169,6.505352 -75.289138,6.505532 -75.289107,6.505688 -75.289100,6.505721 -75.289082,6.505768 -75.289001,6.505764 -75.288891,6.505737 -75.288834,6.505737 -75.288772,6.505800 -75.288662,6.505912 -75.288698,6.506102 -75.288757,6.506415 -75.288847,6.506498 -75.288968,6.506578 -75.289152,6.506631 -75.289348,6.506651 -75.289444,6.506661 -75.289628,6.506664 -75.289903,6.506629 -75.290100,6.506636 -75.290260,6.506650 -75.290398,6.506662 -75.290501,6.506662 -75.290596,6.506600 -75.290664,6.506555 -75.290704,6.506530 -75.290724,6.506518 -75.290766,6.506495 -75.290812,6.506470 -75.290876,6.506442 -75.290939,6.506413 -75.291059,6.506372 -75.291187,6.506366 -75.291335,6.506368 -75.291339,6.506435 -75.291341,6.506456 -75.291384,6.506570 -75.291424,6.506617 -75.291459,6.506658 -75.291590,6.506668 -75.291715,6.506697 -75.291818,6.506749 -75.291839,6.506775 -75.292017,6.507005 -75.292221,6.507209 -75.292240,6.507223 -75.292359,6.507305 -75.292417,6.507334 -75.292477,6.507366 -75.292573,6.507380 -75.292667,6.507394 -75.292918,6.507349 -75.293018,6.507344 -75.293053,6.507343 -75.293088,6.507341 -75.293168,6.507359 -75.293323,6.507426 -75.293436,6.507453 -75.293489,6.507465 -75.293560,6.507475 -75.293633,6.507485 -75.293787,6.507479 -75.293860,6.507468 -75.293897,6.507464 -75.293936,6.507460 -75.293975,6.507457 -75.294128,6.507451 -75.294312,6.507456 -75.294460,6.507459 -75.294541,6.507474 -75.294581,6.507480 -75.294695,6.507492 -75.294827,6.507505 -75.294947,6.507501 -75.295093,6.507497 -75.295188,6.507491 -75.295281,6.507485 -75.295377,6.507450 -75.295487,6.507410 -75.295840,6.507274 -75.296058,6.507208 -75.296270,6.507144 -75.296429,6.507133 -75.296554,6.507088 -75.296645,6.507046 -75.296692,6.507023 -75.296755,6.506988 -75.296812,6.506957 -75.296942,6.506931 -75.297049,6.506895 -75.297168,6.506873 -75.297234,6.506872 -75.297299,6.506870 -75.297440,6.506870 -75.297540,6.506888 -75.297635,6.506921 -75.297665,6.506930 -75.297724,6.506950 -75.297760,6.506953 -75.297842,6.506961 -75.297901,6.506966 -75.297932,6.506954 -75.298080,6.506897 -75.298642,6.506933 -75.298806,6.506943 -75.299066,6.506947 -75.299177,6.506939 -75.299305,6.506926 -75.299482,6.506901 -75.299660,6.506868 -75.299890,6.506826 -75.300130,6.506784 -75.300401,6.506701 -75.300603,6.506651 -75.300776,6.506609 -75.300974,6.506543 -75.301197,6.506485 -75.301428,6.506439 -75.301638,6.506385 -75.301827,6.506347 -75.302045,6.506285 -75.302280,6.506227 -75.302685,6.506218 -75.303085,6.506393 -75.303287,6.506347 -75.303448,6.506368 -75.303559,6.506451 -75.303654,6.506614 -75.303741,6.506754 -75.303878,6.506841 -75.304075,6.506931 -75.304257,6.506992 -75.304373,6.507079 -75.304561,6.507164 -75.304717,6.507261 -75.304819,6.507324 -75.304837,6.507336 -75.304939,6.507399 -75.305124,6.507523 -75.305302,6.507641 -75.305442,6.507760 -75.305591,6.507883 -75.305703,6.507970 -75.305733,6.507994 -75.305822,6.508060 -75.305934,6.508139 -75.306037,6.508196 -75.306145,6.508229 -75.306202,6.508314 -75.306277,6.508361 -75.306380,6.508430 -75.306458,6.508504 -75.306562,6.508603 -75.306690,6.508688 -75.306801,6.508767 -75.306921,6.508767 -75.307094,6.508767 -75.307275,6.508779 -75.307481,6.508786 -75.307614,6.508843 -75.307762,6.508880 -75.307878,6.508917 -75.308199,6.508937 -75.308579,6.508919 -75.308739,6.508919 -75.308851,6.508823 -75.308986,6.508757 -75.309180,6.508691 -75.309427,6.508599 -75.309625,6.508558 -75.309761,6.508632 -75.309914,6.508685 -75.310034,6.508680 -75.310174,6.508652 -75.310322,6.508619 -75.310520,6.508606 -75.310714,6.508675 -75.310784,6.508745 -75.310809,6.508770 -75.310900,6.508848 -75.310970,6.508910 -75.310983,6.509000 -75.311008,6.509078 -75.311020,6.509140 -75.311107,6.509226 -75.311215,6.509325 -75.311231,6.509461 -75.311281,6.509543 -75.311322,6.509692 -75.311282,6.509840 -75.311360,6.509881 -75.311504,6.509897 -75.311640,6.509938 -75.311781,6.509904 -75.311913,6.509913 -75.312057,6.509921 -75.312222,6.509928 -75.312329,6.509796 -75.312601,6.509672 -75.312964,6.509691 -75.313232,6.509848 -75.313326,6.509911 -75.313439,6.509943 -75.313636,6.509917 -75.313814,6.509929 -75.313908,6.509987 -75.313999,6.510073 -75.314057,6.510154 -75.314070,6.510246 -75.314074,6.510319 -75.314079,6.510406 -75.314122,6.510419 -75.314217,6.510448 -75.314303,6.510468 -75.314360,6.510495 -75.314406,6.510516 -75.314434,6.510523 -75.314566,6.510558 -75.314635,6.510483 -75.314759,6.510475 -75.314856,6.510494 -75.314893,6.510500 -75.315036,6.510576 -75.315200,6.510643 -75.315208,6.510721 -75.315222,6.510875 -75.315269,6.511012 -75.315415,6.511183 -75.315459,6.511280 -75.315811,6.511295 -75.315983,6.511398 -75.316149,6.511498 -75.316218,6.511518 -75.316263,6.511526 -75.316328,6.511612 -75.316350,6.511765 -75.316461,6.511867 -75.316573,6.511859 -75.316684,6.511794 -75.316774,6.511711 -75.316869,6.511702 -75.316976,6.511763 -75.317075,6.511887 -75.317142,6.512006 -75.317245,6.512076 -75.317348,6.512092 -75.317447,6.512100 -75.317509,6.512149 -75.317596,6.512199 -75.317691,6.512161 -75.317790,6.512178 -75.317905,6.512194 -75.318012,6.512205 -75.318065,6.512236 -75.318103,6.512263 -75.318165,6.512378 -75.318214,6.512468 -75.318293,6.512485 -75.318441,6.512478 -75.318554,6.512454 -75.318682,6.512460 -75.318744,6.512462 -75.318834,6.512478 -75.318889,6.512488 -75.318911,6.512485 -75.319023,6.512464 -75.319166,6.512457 -75.319264,6.512481 -75.319286,6.512486 -75.319270,6.512385 -75.319262,6.512295 -75.319257,6.512211 -75.319282,6.512082 -75.319279,6.511964 -75.319281,6.511831 -75.319284,6.511783 -75.319287,6.511684 -75.319298,6.511561 -75.319318,6.511475 -75.319330,6.511421 -75.319374,6.511272 -75.319382,6.511243 -75.319420,6.511057 -75.319451,6.510809 -75.319490,6.510595 -75.319549,6.510418 -75.319612,6.510266 -75.319690,6.510161 -75.319888,6.509828 -75.319916,6.509793 -75.319999,6.509688 -75.320040,6.509639 -75.320105,6.509563 -75.320141,6.509522 -75.320268,6.509374 -75.320395,6.509205 -75.320477,6.509097 -75.320566,6.508873 -75.320599,6.508683 -75.320619,6.508430 -75.320629,6.508184 -75.320622,6.507978 -75.320621,6.507805 -75.320657,6.507633 -75.320752,6.507430 -75.320850,6.507302 -75.320981,6.507199 -75.321042,6.507197 -75.321095,6.507194 -75.321151,6.507192 -75.321474,6.507156 -75.321616,6.507173 -75.321681,6.507181 -75.321796,6.507224 -75.321983,6.507289 -75.322201,6.507401 -75.322410,6.507574 -75.322588,6.507673 -75.322772,6.507782 -75.322848,6.507838 -75.322997,6.507891 -75.323149,6.507945 -75.323310,6.507973 -75.323456,6.507961 -75.323464,6.507947 -75.323715,6.507803 -75.323894,6.507551 -75.324144,6.507120 -75.324107,6.506833 -75.323819,6.506188 -75.323711,6.505973 -75.323710,6.505686 -75.323853,6.505434 -75.323996,6.505255 -75.324246,6.505075 -75.324434,6.504900 -75.324712,6.504643 -75.324963,6.504570 -75.325465,6.504462 -75.325564,6.504450 -75.325787,6.504425 -75.326110,6.504245 -75.326289,6.504029 -75.326503,6.503706 -75.326610,6.503490 -75.326785,6.503315 -75.326789,6.503310 -75.327075,6.502951 -75.327218,6.502771 -75.327540,6.502519 -75.327563,6.502505 -75.327934,6.502267 -75.328471,6.501799 -75.328829,6.501475 -75.329187,6.501187 -75.329509,6.500900 -75.329796,6.500719 -75.330154,6.500575 -75.330405,6.500467 -75.330800,6.500466 -75.331159,6.500501 -75.331410,6.500428 -75.331732,6.500248 -75.331983,6.500068 -75.332162,6.500068 -75.332485,6.499959 -75.332879,6.499779 -75.333309,6.499706 -75.333668,6.499634 -75.334026,6.499633 -75.334385,6.499632 -75.334744,6.499631 -75.335055,6.499724 -75.335103,6.499738 -75.335390,6.499845 -75.335677,6.499987 -75.335724,6.500010 -75.335893,6.500094 -75.336072,6.500202 -75.336233,6.500266 -75.336252,6.500273 -75.336467,6.500308 -75.336826,6.500379 -75.337149,6.500342 -75.337328,6.500297 -75.337436,6.500270 -75.337830,6.500054 -75.338116,6.499658 -75.338402,6.499335 -75.338545,6.499191 -75.338832,6.499154 -75.339084,6.499441 -75.339335,6.499619 -75.339515,6.499834 -75.339695,6.500013 -75.339983,6.500228 -75.340234,6.500335 -75.340557,6.500298 -75.340664,6.500226 -75.340771,6.500046 -75.340914,6.499831 -75.340950,6.499687 -75.341021,6.499508 -75.341200,6.499471 -75.341452,6.499471 -75.341738,6.499362 -75.341953,6.499147 -75.342168,6.498967 -75.342418,6.498715 -75.342705,6.498463 -75.342848,6.498319 -75.343063,6.498247 -75.343529,6.498102 -75.343959,6.498029 -75.344425,6.497849 -75.344927,6.497847 -75.345033,6.497741 -75.345249,6.497524 -75.345320,6.497093 -75.345355,6.496734 -75.345390,6.496304 -75.345604,6.495980 -75.345854,6.495728 -75.346213,6.495512 -75.346499,6.495332 -75.346786,6.495188 -75.347144,6.494936 -75.347359,6.494792 -75.347716,6.494360 -75.348218,6.493964 -75.348576,6.493748 -75.348862,6.493317 -75.349112,6.493029 -75.349363,6.492777 -75.349721,6.492561 -75.350366,6.492416 -75.350653,6.492308 -75.350939,6.492092 -75.351226,6.491912 -75.351584,6.491731 -75.351835,6.491623 -75.352193,6.491443 -75.352623,6.491298 -75.352910,6.491190 -75.353196,6.490938 -75.353369,6.490659 -75.353375,6.490651 -75.353387,6.490620 -75.353429,6.490520 -75.353544,6.490242 -75.353553,6.490220 -75.353582,6.490173 -75.353642,6.490077 -75.353732,6.489932 -75.354090,6.489608 -75.354268,6.489321 -75.354519,6.489033 -75.354677,6.488741 -75.354733,6.488638 -75.354883,6.488367 -75.354911,6.488315 -75.355018,6.488027 -75.355233,6.487704 -75.355447,6.487452 -75.355740,6.487321 -75.355770,6.487308 -75.356236,6.487163 -75.356451,6.487163 -75.357204,6.487017 -75.357635,6.487088 -75.357994,6.487159 -75.358352,6.487229 -75.358747,6.487300 -75.359249,6.487263 -75.359455,6.487201 -75.359608,6.487155 -75.359966,6.486938 -75.360238,6.486583 -75.360323,6.486471 -75.360466,6.486184 -75.360546,6.485977 -75.360716,6.485537 -75.360858,6.485250 -75.361073,6.484962 -75.361180,6.484711 -75.361430,6.484244 -75.361675,6.483812 -75.361716,6.483741 -75.362037,6.483381 -75.362324,6.483273 -75.362646,6.483021 -75.362789,6.482554 -75.362788,6.482195 -75.362679,6.481944 -75.362535,6.481550 -75.362534,6.481299 -75.362534,6.480976 -75.362641,6.480760 -75.362855,6.480545 -75.362906,6.480511 -75.363070,6.480401 -75.363357,6.480149 -75.363499,6.479897 -75.363499,6.479574 -75.363247,6.479324 -75.363239,6.479316 -75.363067,6.479145 -75.363102,6.478965 -75.363066,6.478607 -75.363244,6.478283 -75.363351,6.477996 -75.363422,6.477673 -75.363457,6.477386 -75.363492,6.477099 -75.363455,6.476632 -75.363419,6.476417 -75.363454,6.476058 -75.363560,6.475663 -75.363739,6.475340 -75.363954,6.475088 -75.364133,6.475160 -75.364493,6.475517 -75.364744,6.475804 -75.365103,6.475875 -75.365354,6.475766 -75.365533,6.475587 -75.365699,6.475420 -75.365819,6.475299 -75.365926,6.475083 -75.366069,6.474796 -75.366098,6.474576 -75.366140,6.474258 -75.366139,6.473971 -75.366174,6.473648 -75.366280,6.473181 -75.366351,6.472607 -75.366350,6.472360 -75.366350,6.472320 -75.366528,6.471996 -75.366850,6.471708 -75.367220,6.471438 -75.367244,6.471420 -75.367674,6.471204 -75.368069,6.471131 -75.368332,6.470925 -75.368390,6.470880 -75.368391,6.470879 -75.368426,6.470592 -75.368317,6.470234 -75.368137,6.469911 -75.368028,6.469445 -75.368027,6.469050 -75.367990,6.468620 -75.367954,6.468333 -75.367953,6.467974 -75.367952,6.467651 -75.367916,6.467436 -75.367879,6.467221 -75.367842,6.466647 -75.367912,6.466144 -75.367839,6.465606 -75.367802,6.465176 -75.367801,6.464781 -75.368266,6.464134 -75.368911,6.463774 -75.369448,6.463593 -75.369950,6.463305 -75.370201,6.463233 -75.370523,6.463016 -75.370674,6.462882 -75.370845,6.462729 -75.371203,6.462477 -75.371561,6.462296 -75.371920,6.462116 -75.372386,6.462007 -75.372617,6.461943 -75.372780,6.461898 -75.373246,6.461682 -75.373629,6.461425 -75.373675,6.461394 -75.373766,6.461312 -75.374033,6.461070 -75.374284,6.460747 -75.374677,6.460207 -75.374963,6.459848 -75.374981,6.459820 -75.375249,6.459417 -75.375575,6.459285 -75.375607,6.459272 -75.375750,6.459021 -75.375892,6.458697 -75.376035,6.458410 -75.376088,6.458278 -75.376249,6.457871 -75.376464,6.457584 -75.376678,6.457404 -75.377037,6.457331 -75.377396,6.457330 -75.377718,6.457365 -75.378042,6.457472 -75.378329,6.457615 -75.378795,6.457721 -75.379154,6.457792 -75.379477,6.457827 -75.379800,6.457790 -75.380051,6.457610 -75.380373,6.457466 -75.380660,6.457465 -75.380947,6.457572 -75.381234,6.457643 -75.381390,6.457687 -75.381486,6.457714 -75.381844,6.457785 -75.382095,6.457785 -75.382136,6.457774 -75.382382,6.457712 -75.382741,6.457711 -75.383016,6.457765 -75.383100,6.457782 -75.383423,6.457853 -75.383746,6.457852 -75.384068,6.457600 -75.384318,6.457420 -75.384892,6.457167 -75.385178,6.457023 -75.385787,6.456806 -75.386218,6.456734 -75.386469,6.456733 -75.386684,6.456696 -75.386971,6.456660 -75.387043,6.456660 -75.387293,6.456408 -75.387508,6.456228 -75.387794,6.456120 -75.388081,6.456011 -75.388332,6.455975 -75.388727,6.455938 -75.389014,6.455973 -75.389265,6.456044 -75.389516,6.456187 -75.389522,6.456191 -75.389659,6.455935 -75.389515,6.455505 -75.389442,6.455147 -75.389441,6.454824 -75.389405,6.454573 -75.389368,6.454322 -75.389475,6.454034 -75.389582,6.453711 -75.389688,6.453065 -75.389687,6.452778 -75.389686,6.452527 -75.389686,6.452276 -75.389756,6.451845 -75.389863,6.451558 -75.389970,6.451127 -75.390112,6.450768 -75.390255,6.450444 -75.390254,6.450265 -75.390218,6.450086 -75.390110,6.449799 -75.389930,6.449548 -75.390001,6.449261 -75.389821,6.449154 -75.389606,6.449154 -75.389426,6.449083 -75.389246,6.448832 -75.389137,6.448259 -75.389100,6.447900 -75.389167,6.447720 -75.389207,6.447613 -75.389458,6.447469 -75.389816,6.447360 -75.389994,6.447379 -75.390139,6.447395 -75.390356,6.447370 -75.390678,6.447501 -75.390893,6.447537 -75.391215,6.447428 -75.391358,6.447213 -75.391393,6.446890 -75.391429,6.446674 -75.391464,6.446531 -75.391643,6.446279 -75.391893,6.445920 -75.392143,6.445668 -75.392394,6.445488 -75.392788,6.445307 -75.393074,6.444984 -75.393253,6.444660 -75.393288,6.444337 -75.393359,6.443978 -75.393430,6.443763 -75.393644,6.443475 -75.393858,6.443080 -75.394288,6.442756 -75.394861,6.442396 -75.395326,6.442036 -75.395792,6.441819 -75.396114,6.441639 -75.396330,6.441639 -75.396622,6.441693 -75.396904,6.441745 -75.397622,6.442102 -75.398053,6.442208 -75.398591,6.442279 -75.399129,6.442385 -75.399518,6.442444 -75.399596,6.442455 -75.400026,6.442490 -75.400421,6.442597 -75.400604,6.442617 -75.401067,6.442667 -75.401569,6.442666 -75.401999,6.442664 -75.402573,6.442627 -75.403075,6.442554 -75.403505,6.442445 -75.403863,6.442193 -75.404114,6.442013 -75.404472,6.441653 -75.404794,6.441401 -75.404954,6.441260 -75.405080,6.441150 -75.405318,6.441053 -75.405618,6.440933 -75.405976,6.440824 -75.406239,6.440853 -75.406299,6.440859 -75.406586,6.441002 -75.406909,6.441181 -75.407233,6.441359 -75.407664,6.441573 -75.408093,6.441664 -75.408166,6.441680 -75.408282,6.441663 -75.408417,6.441643 -75.408811,6.441534 -75.409206,6.441426 -75.409493,6.441461 -75.409995,6.441675 -75.410282,6.441746 -75.410513,6.441806 -75.410964,6.441924 -75.411610,6.442101 -75.412077,6.442172 -75.412400,6.442314 -75.412921,6.442411 -75.412974,6.442421 -75.413369,6.442491 -75.413979,6.442633 -75.414409,6.442560 -75.414696,6.442344 -75.415233,6.442128 -75.415592,6.442091 -75.415861,6.442115 -75.415986,6.442126 -75.416345,6.442232 -75.416704,6.442375 -75.417063,6.442553 -75.417315,6.442625 -75.417566,6.442660 -75.417745,6.442588 -75.417924,6.442408 -75.418210,6.442227 -75.418533,6.442047 -75.418856,6.442046 -75.419161,6.442129 -75.419250,6.442153 -75.419466,6.442224 -75.419860,6.442151 -75.420075,6.442115 -75.420361,6.441863 -75.420400,6.441863 -75.420792,6.441862 -75.421151,6.441861 -75.421939,6.441787 -75.422836,6.441677 -75.423050,6.441605 -75.423266,6.441533 -75.423624,6.441424 -75.423990,6.441331 -75.424054,6.441315 -75.424170,6.441272 -75.424735,6.441062 -75.425201,6.440774 -75.425324,6.440726 -75.425666,6.440593 -75.425675,6.440588 -75.426383,6.440197 -75.426638,6.440119 -75.427100,6.439980 -75.427637,6.439871 -75.427924,6.439870 -75.428283,6.439833 -75.428465,6.439741 -75.428641,6.439653 -75.428786,6.439671 -75.428928,6.439688 -75.429180,6.439902 -75.429431,6.440153 -75.429790,6.440260 -75.430472,6.440330 -75.430938,6.440221 -75.431403,6.439753 -75.431617,6.439358 -75.431903,6.439070 -75.431908,6.439067 -75.432278,6.438830 -75.432297,6.438818 -75.432512,6.438674 -75.432906,6.438529 -75.433337,6.438528 -75.434054,6.438419 -75.434483,6.438166 -75.434770,6.437878 -75.435056,6.437555 -75.435378,6.437375 -75.436059,6.437373 -75.436418,6.437444 -75.436587,6.437593 -75.436742,6.437730 -75.436889,6.437876 -75.436958,6.437944 -75.436999,6.437951 -75.437173,6.437980 -75.437783,6.438229 -75.437820,6.438278 -75.437891,6.438372 -75.438143,6.438659 -75.438251,6.438766 -75.438430,6.438837 -75.438825,6.438872 -75.439183,6.438764 -75.439398,6.438620 -75.439613,6.438332 -75.439863,6.438008 -75.440077,6.437613 -75.440086,6.437586 -75.440184,6.437290 -75.440326,6.436931 -75.440505,6.436608 -75.440684,6.436464 -75.440845,6.436391 -75.441006,6.436319 -75.441443,6.436249 -75.441687,6.436210 -75.442011,6.436388 -75.442262,6.436531 -75.442622,6.436889 -75.442909,6.437103 -75.443268,6.437282 -75.443591,6.437353 -75.443950,6.437388 -75.444201,6.437387 -75.444524,6.437386 -75.444883,6.437529 -75.444945,6.437573 -75.445135,6.437707 -75.445421,6.437671 -75.445742,6.437477 -75.445779,6.437455 -75.446066,6.437131 -75.446244,6.436628 -75.446601,6.436268 -75.446888,6.436088 -75.446957,6.436065 -75.447210,6.435980 -75.447604,6.435835 -75.448034,6.435726 -75.448393,6.435654 -75.448553,6.435653 -75.448823,6.435652 -75.449146,6.435795 -75.449506,6.435974 -75.449721,6.436116 -75.450008,6.436223 -75.450367,6.436330 -75.450583,6.436437 -75.450799,6.436616 -75.451052,6.436674 -75.451070,6.436678 -75.451070,6.436678 -75.450691,6.435823 -75.450232,6.435025 -75.449849,6.434474 -75.449536,6.434378 -75.449152,6.434262 -75.448737,6.434085 -75.448506,6.433812 -75.448281,6.433321 -75.448281,6.433321 -75.448038,6.432859 -75.448037,6.432862 -75.448037,6.432862 -75.447953,6.432704 -75.447902,6.432608 -75.447902,6.432608 -75.447548,6.432201 -75.447548,6.432201 -75.447168,6.431817 -75.447168,6.431817 -75.446764,6.431335 -75.446505,6.430977 -75.446261,6.430495 -75.446004,6.429921 -75.445702,6.429372 -75.445476,6.428881 -75.445325,6.428267 -75.445315,6.428147 -75.445303,6.427998 -75.445308,6.427578 -75.445330,6.427281 -75.445042,6.427209 -75.444758,6.427012 -75.444685,6.426995 -75.444614,6.426979 -75.444365,6.426831 -75.444341,6.426817 -75.444015,6.426662 -75.443791,6.426513 -75.443537,6.426431 -75.443537,6.426431 -75.443179,6.426472 -75.442782,6.426538 -75.442782,6.426538 -75.442651,6.426597 -75.442406,6.426707 -75.441969,6.426785 -75.441914,6.426785 -75.441697,6.426786 -75.441078,6.426679 -75.440631,6.426619 -75.440631,6.426619 -75.440273,6.426590 -75.440049,6.426557 -75.439931,6.426540 -75.439614,6.426373 -75.439442,6.426308 -75.439350,6.426063 -75.439350,6.426063 -75.439274,6.425803 -75.439099,6.425560 -75.439099,6.425560 -75.439013,6.425360 -75.438787,6.425214 -75.438787,6.425214 -75.438582,6.425044 -75.438376,6.424749 -75.438115,6.424499 -75.437935,6.424296 -75.437805,6.424060 -75.437805,6.424060 -75.437715,6.423905 -75.437648,6.423746 -75.437610,6.423655 -75.437530,6.423453 -75.437443,6.422956 -75.437443,6.422956 -75.437410,6.422507 -75.437410,6.422507 -75.437360,6.422244 -75.437360,6.422244 -75.437198,6.422026 -75.437042,6.421808 -75.437025,6.421644 -75.437075,6.421362 -75.437262,6.421105 -75.437351,6.420836 -75.437367,6.420621 -75.437375,6.420517 -75.437375,6.420517 -75.437284,6.420092 -75.437012,6.419801 -75.436749,6.419670 -75.436638,6.419471 -75.436494,6.419244 -75.436398,6.419042 -75.436238,6.418863 -75.436278,6.418479 -75.436262,6.418090 -75.436184,6.418003 -75.436108,6.417919 -75.435981,6.417684 -75.435937,6.417604 -75.435937,6.417604 -75.435805,6.417481 -75.435570,6.417344 -75.435360,6.417180 -75.435116,6.417068 -75.435116,6.417068 -75.434794,6.416907 -75.434570,6.416809 -75.434383,6.416726 -75.434383,6.416726 -75.434101,6.416514 -75.433916,6.416270 -75.433824,6.416068 -75.433797,6.416009 -75.433667,6.415631 -75.433599,6.415526 -75.433537,6.415428 -75.433484,6.415267 -75.433443,6.415141 -75.433267,6.414891 -75.433222,6.414826 -75.432928,6.414616 -75.432559,6.414356 -75.432559,6.414356 -75.432121,6.414037 -75.431824,6.413824 -75.431578,6.413649 -75.431256,6.413408 -75.430886,6.413162 -75.430886,6.413162 -75.430550,6.412926 -75.430292,6.412679 -75.430099,6.412543 -75.430002,6.412475 -75.430002,6.412475 -75.429724,6.412275 -75.429511,6.412151 -75.429413,6.412094 -75.429413,6.412094 -75.429252,6.411915 -75.429023,6.411780 -75.428679,6.411580 -75.428585,6.411424 -75.428502,6.411285 -75.428339,6.410968 -75.428339,6.410968 -75.428197,6.410542 -75.428060,6.410070 -75.427912,6.409730 -75.427912,6.409730 -75.427785,6.409548 -75.427490,6.409345 -75.427490,6.409345 -75.427237,6.409129 -75.426923,6.408908 -75.426923,6.408908 -75.426676,6.408647 -75.426420,6.408567 -75.426174,6.408471 -75.426168,6.408469 -75.425922,6.408208 -75.425751,6.408005 -75.425692,6.407935 -75.425334,6.407891 -75.425303,6.407887 -75.425133,6.407774 -75.425147,6.407685 -75.425259,6.407543 -75.425302,6.407464 -75.425272,6.407207 -75.425182,6.407045 -75.425164,6.407013 -75.425164,6.407013 -75.424931,6.406868 -75.424729,6.406689 -75.424623,6.406547 -75.424567,6.406471 -75.424312,6.406215 -75.424091,6.406002 -75.424053,6.405965 -75.423815,6.405692 -75.423630,6.405494 -75.423454,6.405296 -75.423323,6.405171 -75.423187,6.405035 -75.423004,6.404852 -75.422786,6.404691 -75.422522,6.404640 -75.422303,6.404551 -75.421987,6.404706 -75.421633,6.404781 -75.421633,6.404781 -75.421454,6.404798 -75.421253,6.404683 -75.421611,6.404637 -75.421624,6.404636 -75.421624,6.404636 -75.421824,6.404462 -75.421880,6.404226 -75.421793,6.403953 -75.421789,6.403764 -75.421786,6.403639 -75.421786,6.403639 -75.421621,6.403290 -75.421436,6.403015 -75.421142,6.402601 -75.420831,6.402250 -75.420635,6.401880 -75.420400,6.401521 -75.420377,6.401393 -75.420349,6.401233 -75.420337,6.401048 -75.420329,6.400914 -75.420329,6.400914 -75.420575,6.400514 -75.420786,6.400439 -75.420942,6.400462 -75.421104,6.400483 -75.421022,6.400281 -75.420984,6.400078 -75.421002,6.399875 -75.421094,6.399727 -75.421094,6.399727 -75.421149,6.399579 -75.421149,6.399579 -75.421241,6.399431 -75.421315,6.399302 -75.421314,6.399080 -75.421258,6.398878 -75.421165,6.398657 -75.421165,6.398656 -75.421109,6.398472 -75.421109,6.398472 -75.421035,6.398287 -75.420979,6.398047 -75.420960,6.397826 -75.420941,6.397568 -75.420941,6.397568 -75.420959,6.397327 -75.420959,6.397327 -75.421013,6.397032 -75.421068,6.396847 -75.421068,6.396847 -75.421068,6.396626 -75.421086,6.396441 -75.421104,6.396256 -75.421066,6.396072 -75.421066,6.396072 -75.420992,6.395887 -75.420992,6.395887 -75.420807,6.395685 -75.420677,6.395519 -75.420545,6.395404 -75.420529,6.395390 -75.420473,6.395187 -75.420473,6.395187 -75.420418,6.395021 -75.420350,6.394898 -75.420306,6.394818 -75.420199,6.394681 -75.420177,6.394652 -75.420177,6.394652 -75.420047,6.394468 -75.419917,6.394411 -75.419881,6.394395 -75.419881,6.394395 -75.419604,6.394340 -75.419290,6.394286 -75.419290,6.394286 -75.419221,6.394296 -75.419032,6.394323 -75.418893,6.394345 -75.418792,6.394361 -75.418552,6.394417 -75.418552,6.394417 -75.418257,6.394436 -75.418257,6.394436 -75.418194,6.394449 -75.417888,6.394511 -75.417752,6.394549 -75.417556,6.394604 -75.417464,6.394655 -75.417390,6.394697 -75.416966,6.394845 -75.416966,6.394845 -75.416745,6.394994 -75.416745,6.394994 -75.416524,6.395105 -75.416321,6.395216 -75.416100,6.395309 -75.416100,6.395309 -75.415805,6.395439 -75.415399,6.395514 -75.414901,6.395571 -75.414858,6.395577 -75.414532,6.395627 -75.414089,6.395665 -75.414089,6.395665 -75.413720,6.395722 -75.413406,6.395685 -75.413055,6.395613 -75.412760,6.395595 -75.412465,6.395577 -75.412132,6.395486 -75.411874,6.395376 -75.411690,6.395205 -75.411578,6.395099 -75.411282,6.394786 -75.411096,6.394473 -75.410962,6.394194 -75.410892,6.394049 -75.410892,6.394049 -75.410780,6.393643 -75.410724,6.393200 -75.410724,6.393200 -75.410630,6.392683 -75.410600,6.392493 -75.410574,6.392333 -75.410389,6.392038 -75.410389,6.392038 -75.410148,6.391724 -75.409981,6.391411 -75.409767,6.391185 -75.409635,6.390845 -75.409635,6.390845 -75.409398,6.390347 -75.409398,6.390347 -75.409292,6.389875 -75.409160,6.389429 -75.409054,6.389010 -75.408895,6.388617 -75.408895,6.388617 -75.408816,6.388250 -75.408683,6.387778 -75.408525,6.387411 -75.408262,6.387071 -75.408104,6.386940 -75.408051,6.386730 -75.408050,6.386363 -75.408060,6.386306 -75.408076,6.386205 -75.408154,6.385917 -75.408154,6.385917 -75.408258,6.385680 -75.408231,6.385366 -75.408152,6.385077 -75.407900,6.384810 -75.407758,6.384659 -75.407390,6.384292 -75.407203,6.384133 -75.407022,6.383978 -75.406759,6.383769 -75.406470,6.383429 -75.406470,6.383429 -75.406285,6.383088 -75.406172,6.382896 -75.406101,6.382774 -75.406101,6.382774 -75.406047,6.382407 -75.406047,6.382407 -75.405915,6.381830 -75.405782,6.381457 -75.405756,6.381385 -75.405546,6.380992 -75.405440,6.380598 -75.405440,6.380598 -75.405281,6.380232 -75.405097,6.379786 -75.405069,6.379393 -75.405121,6.379104 -75.405299,6.378836 -75.405330,6.378789 -75.405461,6.378526 -75.405590,6.378291 -75.405591,6.378290 -75.405591,6.378290 -75.405643,6.377948 -75.405643,6.377948 -75.405642,6.377555 -75.405642,6.377555 -75.405640,6.377083 -75.405640,6.377083 -75.405692,6.376723 -75.405692,6.376723 -75.405691,6.376435 -75.405480,6.376068 -75.405480,6.376068 -75.405270,6.375754 -75.405164,6.375518 -75.405242,6.375177 -75.405300,6.374904 -75.405320,6.374809 -75.405319,6.374390 -75.405319,6.374390 -75.405291,6.373944 -75.405133,6.373498 -75.405133,6.373498 -75.405001,6.373052 -75.404816,6.372712 -75.404632,6.372450 -75.404526,6.372162 -75.404526,6.371821 -75.404541,6.371581 -75.404551,6.371427 -75.404540,6.371268 -75.404524,6.371008 -75.404418,6.370641 -75.404418,6.370641 -75.404259,6.370247 -75.404259,6.370247 -75.404101,6.369802 -75.404101,6.369802 -75.403890,6.369252 -75.403836,6.368921 -75.403926,6.368649 -75.403967,6.368527 -75.404149,6.368212 -75.404385,6.368054 -75.404699,6.367922 -75.404699,6.367922 -75.404762,6.367875 -75.404762,6.367875 -75.404665,6.367816 -75.404709,6.367794 -75.404860,6.367708 -75.404874,6.367700 -75.404915,6.367650 -75.404929,6.367608 -75.404941,6.367570 -75.404954,6.367532 -75.404954,6.367532 -75.404962,6.367482 -75.404962,6.367482 -75.404977,6.367392 -75.405025,6.367253 -75.405047,6.367189 -75.405062,6.367025 -75.405061,6.366861 -75.405032,6.366425 -75.405039,6.366366 -75.405036,6.366244 -75.405036,6.366244 -75.405011,6.366148 -75.404928,6.366051 -75.404855,6.365952 -75.404817,6.365898 -75.404776,6.365840 -75.404693,6.365708 -75.404605,6.365568 -75.404564,6.365482 -75.404536,6.365421 -75.404482,6.365297 -75.404456,6.365241 -75.404425,6.365175 -75.404337,6.365118 -75.404300,6.364977 -75.404247,6.364913 -75.404212,6.364871 -75.404086,6.364724 -75.404054,6.364694 -75.403973,6.364615 -75.403923,6.364578 -75.403886,6.364551 -75.403808,6.364553 -75.403683,6.364575 -75.403683,6.364575 -75.403512,6.364630 -75.403335,6.364688 -75.403270,6.364711 -75.403120,6.364765 -75.403010,6.364799 -75.402792,6.364882 -75.402759,6.364897 -75.402585,6.364973 -75.402361,6.365081 -75.402160,6.365177 -75.401944,6.365253 -75.401909,6.365270 -75.401735,6.365355 -75.401735,6.365355 -75.401605,6.365398 -75.401605,6.365398 -75.401362,6.365401 -75.401286,6.365416 -75.401171,6.365437 -75.400873,6.365468 -75.400604,6.365489 -75.400382,6.365485 -75.400201,6.365495 -75.400201,6.365495 -75.399405,6.365620 -75.398517,6.365967 -75.398290,6.366080 -75.398003,6.366204 -75.397712,6.366325 -75.397712,6.366325 -75.397533,6.366434 -75.397419,6.366489 -75.397419,6.366489 -75.397142,6.366662 -75.396986,6.366718 -75.396986,6.366718 -75.396940,6.366739 -75.396819,6.366794 -75.396699,6.366811 -75.396699,6.366811 -75.396677,6.366807 -75.396534,6.366779 -75.396362,6.366736 -75.396171,6.366714 -75.396106,6.366704 -75.396024,6.366691 -75.395896,6.366693 -75.395896,6.366693 -75.395777,6.366713 -75.395696,6.366736 -75.395623,6.366771 -75.395608,6.366776 -75.394862,6.367046 -75.394771,6.367083 -75.394724,6.367102 -75.394564,6.367169 -75.394564,6.367169 -75.394417,6.367194 -75.394377,6.367200 -75.394252,6.367218 -75.394178,6.367235 -75.394112,6.367250 -75.393896,6.367315 -75.393757,6.367391 -75.393613,6.367489 -75.393613,6.367489 -75.393411,6.367666 -75.393292,6.367754 -75.393169,6.367848 -75.393169,6.367848 -75.393013,6.367980 -75.393013,6.367980 -75.392882,6.368098 -75.392877,6.368099 -75.392800,6.368118 -75.392718,6.368112 -75.392649,6.368107 -75.392497,6.368099 -75.392492,6.368099 -75.392492,6.368099 -75.392164,6.368095 -75.391944,6.368082 -75.391705,6.368051 -75.391427,6.367999 -75.391202,6.367986 -75.391048,6.368003 -75.391041,6.368004 -75.390904,6.368021 -75.390743,6.368035 -75.390550,6.368105 -75.390550,6.368105 -75.390464,6.368163 -75.390315,6.368267 -75.390143,6.368366 -75.390045,6.368417 -75.390045,6.368417 -75.389209,6.368979 -75.389111,6.369064 -75.389003,6.369127 -75.389003,6.369127 -75.388886,6.369211 -75.388886,6.369211 -75.388693,6.369332 -75.388526,6.369418 -75.388526,6.369418 -75.388498,6.369431 -75.388338,6.369504 -75.388201,6.369571 -75.388201,6.369571 -75.388154,6.369599 -75.388061,6.369656 -75.387988,6.369718 -75.387970,6.369780 -75.387927,6.369939 -75.387927,6.369942 -75.387941,6.370052 -75.387953,6.370174 -75.387960,6.370240 -75.387972,6.370348 -75.387990,6.370481 -75.387990,6.370481 -75.387992,6.370518 -75.387998,6.370621 -75.387998,6.370621 -75.387998,6.370800 -75.388001,6.371022 -75.387996,6.371146 -75.387993,6.371245 -75.387971,6.371416 -75.387943,6.371539 -75.387893,6.371645 -75.387893,6.371645 -75.387786,6.371801 -75.387667,6.371986 -75.387542,6.372165 -75.387542,6.372165 -75.387358,6.372343 -75.387358,6.372343 -75.387201,6.372446 -75.387201,6.372446 -75.386969,6.372580 -75.386717,6.372664 -75.386495,6.372818 -75.386074,6.373018 -75.385754,6.373081 -75.385754,6.373081 -75.385462,6.372996 -75.385343,6.372969 -75.385107,6.372986 -75.385043,6.373004 -75.385024,6.373010 -75.385024,6.373010 -75.384848,6.373104 -75.384738,6.373166 -75.384611,6.373229 -75.384611,6.373229 -75.384453,6.373249 -75.384368,6.373216 -75.384368,6.373216 -75.384279,6.373147 -75.384191,6.373120 -75.384093,6.373132 -75.384005,6.373149 -75.383944,6.373160 -75.383826,6.373204 -75.383826,6.373204 -75.383763,6.373284 -75.383710,6.373374 -75.383625,6.373439 -75.383511,6.373446 -75.383388,6.373364 -75.383285,6.373224 -75.383285,6.373224 -75.383225,6.373109 -75.383153,6.372997 -75.383061,6.372898 -75.382997,6.372860 -75.382866,6.372826 -75.382733,6.372833 -75.382526,6.372877 -75.382400,6.372825 -75.382230,6.372748 -75.382138,6.372707 -75.382032,6.372661 -75.381754,6.372566 -75.381508,6.372477 -75.381508,6.372477 -75.381223,6.372400 -75.381042,6.372381 -75.379979,6.372231 -75.379899,6.372229 -75.379777,6.372232 -75.379511,6.372251 -75.379511,6.372251 -75.379380,6.372254 -75.379380,6.372254 -75.379188,6.372238 -75.379105,6.372226 -75.378928,6.372202 -75.378722,6.372169 -75.378708,6.372167 -75.378708,6.372167 -75.378453,6.372114 -75.378292,6.372019 -75.378134,6.371905 -75.378119,6.371895 -75.378119,6.371895 -75.377919,6.371873 -75.377750,6.371910 -75.377587,6.371924 -75.377587,6.371924 -75.377433,6.371862 -75.377433,6.371862 -75.377263,6.371854 -75.377167,6.371878 -75.377149,6.371890 -75.377023,6.371974 -75.376949,6.372009 -75.376864,6.372048 -75.376784,6.372079 -75.376784,6.372079 -75.376723,6.372177 -75.376723,6.372177 -75.376686,6.372311 -75.376686,6.372311 -75.376613,6.372371 -75.376473,6.372364 -75.376391,6.372367 -75.376278,6.372416 -75.376278,6.372416 -75.376132,6.372512 -75.375999,6.372648 -75.375979,6.372667 -75.375896,6.372744 -75.375772,6.372911 -75.375772,6.372911 -75.375755,6.372941 -75.375725,6.372991 -75.375716,6.373113 -75.375716,6.373113 -75.375690,6.373246 -75.375690,6.373246 -75.375719,6.373408 -75.375817,6.373586 -75.375924,6.373713 -75.376017,6.373850 -75.376079,6.374010 -75.376068,6.374193 -75.376041,6.374370 -75.376012,6.374445 -75.375971,6.374551 -75.375893,6.374724 -75.375807,6.374913 -75.375740,6.375016 -75.375665,6.375092 -75.375665,6.375092 -75.375573,6.375134 -75.375573,6.375134 -75.374910,6.375340 -75.374904,6.375343 -75.374592,6.375486 -75.374487,6.375535 -75.374352,6.375613 -75.374352,6.375613 -75.374312,6.375630 -75.374191,6.375682 -75.374052,6.375736 -75.374052,6.375736 -75.373912,6.375756 -75.373912,6.375756 -75.373788,6.375777 -75.373788,6.375777 -75.373682,6.375835 -75.373682,6.375835 -75.373623,6.375897 -75.373559,6.376004 -75.373490,6.376068 -75.373206,6.376209 -75.373002,6.376291 -75.372764,6.376386 -75.372764,6.376386 -75.372551,6.376406 -75.372551,6.376406 -75.372381,6.376395 -75.372242,6.376404 -75.372136,6.376455 -75.372029,6.376523 -75.372029,6.376523 -75.371946,6.376626 -75.371887,6.376724 -75.371771,6.376786 -75.371671,6.376855 -75.371671,6.376855 -75.371577,6.376902 -75.371457,6.377007 -75.371457,6.377007 -75.371454,6.377014 -75.371412,6.377127 -75.371436,6.377232 -75.371436,6.377232 -75.371507,6.377330 -75.371578,6.377405 -75.371615,6.377523 -75.371615,6.377523 -75.371565,6.377638 -75.371565,6.377638 -75.371476,6.377693 -75.371476,6.377693 -75.371375,6.377719 -75.371142,6.377727 -75.370916,6.377763 -75.370916,6.377763 -75.370774,6.377811 -75.370774,6.377811 -75.370644,6.377839 -75.370644,6.377839 -75.370581,6.377854 -75.370490,6.377875 -75.370329,6.377908 -75.370213,6.377962 -75.370213,6.377962 -75.370154,6.378058 -75.370045,6.378666 -75.370082,6.378967 -75.370189,6.379233 -75.370189,6.379233 -75.370180,6.379255 -75.370144,6.379348 -75.370068,6.379424 -75.370068,6.379424 -75.369995,6.379521 -75.370004,6.379606 -75.369996,6.379735 -75.369986,6.379865 -75.369893,6.379911 -75.369799,6.379956 -75.369769,6.379971 -75.369682,6.380016 -75.369554,6.380126 -75.369554,6.380126 -75.369517,6.380167 -75.369446,6.380246 -75.369355,6.380335 -75.369256,6.380418 -75.369167,6.380487 -75.369080,6.380564 -75.368950,6.380748 -75.368891,6.380850 -75.368842,6.380928 -75.368774,6.381015 -75.368774,6.381015 -75.368608,6.381196 -75.368608,6.381196 -75.368438,6.381235 -75.368282,6.381290 -75.368127,6.381319 -75.368118,6.381321 -75.368108,6.381323 -75.367906,6.381383 -75.367906,6.381383 -75.367635,6.381437 -75.367635,6.381437 -75.367552,6.381453 -75.367476,6.381506 -75.367476,6.381506 -75.367438,6.381602 -75.367438,6.381602 -75.367424,6.381713 -75.367312,6.381831 -75.367312,6.381831 -75.367199,6.381932 -75.367097,6.382040 -75.366944,6.382155 -75.366892,6.382178 -75.366801,6.382219 -75.366640,6.382237 -75.366515,6.382232 -75.366342,6.382238 -75.366265,6.382333 -75.366265,6.382333 -75.365932,6.382614 -75.365641,6.382799 -75.365641,6.382799 -75.365526,6.382832 -75.365415,6.382968 -75.365415,6.382968 -75.365289,6.382923 -75.365289,6.382923 -75.365178,6.382905 -75.365093,6.382881 -75.365040,6.382894 -75.364989,6.382907 -75.364818,6.382996 -75.364678,6.383084 -75.364678,6.383084 -75.364595,6.383178 -75.364593,6.383182 -75.364525,6.383300 -75.364427,6.383409 -75.364331,6.383494 -75.364331,6.383494 -75.364196,6.383563 -75.364098,6.383596 -75.364028,6.383619 -75.363974,6.383639 -75.363911,6.383662 -75.363813,6.383720 -75.363668,6.383787 -75.363660,6.383795 -75.363564,6.383887 -75.363471,6.384001 -75.363436,6.384030 -75.363088,6.384313 -75.362928,6.384614 -75.362928,6.384614 -75.362824,6.384744 -75.362824,6.384744 -75.362596,6.384895 -75.362596,6.384895 -75.362441,6.385102 -75.362414,6.385236 -75.362414,6.385414 -75.362426,6.385467 -75.362442,6.385547 -75.362442,6.385547 -75.362365,6.385612 -75.362301,6.385601 -75.362191,6.385583 -75.362001,6.385561 -75.361782,6.385523 -75.361662,6.385525 -75.361547,6.385527 -75.361364,6.385587 -75.361250,6.385676 -75.361105,6.385693 -75.360965,6.385645 -75.360827,6.385658 -75.360745,6.385799 -75.360654,6.385942 -75.360571,6.386075 -75.360571,6.386075 -75.360521,6.386222 -75.360503,6.386342 -75.360506,6.386366 -75.360525,6.386513 -75.360493,6.386544 -75.360469,6.386567 -75.360378,6.386607 -75.360279,6.386683 -75.360227,6.386801 -75.360227,6.386801 -75.360167,6.386890 -75.360167,6.386890 -75.360021,6.386999 -75.360021,6.386999 -75.359863,6.387139 -75.359773,6.387209 -75.359773,6.387209 -75.359698,6.387284 -75.359596,6.387411 -75.359596,6.387411 -75.359513,6.387509 -75.359462,6.387652 -75.359458,6.387773 -75.359275,6.388014 -75.359190,6.388125 -75.358787,6.388108 -75.358787,6.388108 -75.358701,6.388171 -75.358580,6.388255 -75.358580,6.388255 -75.358421,6.388345 -75.358260,6.388438 -75.358260,6.388438 -75.358189,6.388447 -75.358091,6.388459 -75.357917,6.388455 -75.357917,6.388455 -75.357800,6.388501 -75.357787,6.388615 -75.357773,6.388742 -75.357737,6.388867 -75.357656,6.388916 -75.357656,6.388916 -75.357602,6.388969 -75.357531,6.389062 -75.357499,6.389085 -75.357416,6.389147 -75.357239,6.389228 -75.357226,6.389234 -75.357226,6.389234 -75.357033,6.389305 -75.356963,6.389339 -75.356882,6.389379 -75.356790,6.389470 -75.356752,6.389523 -75.356694,6.389603 -75.356590,6.389757 -75.356590,6.389757 -75.356560,6.389811 -75.356486,6.389942 -75.356386,6.390100 -75.356353,6.390149 -75.356317,6.390205 -75.356255,6.390310 -75.356255,6.390310 -75.356143,6.390403 -75.356143,6.390403 -75.356044,6.390468 -75.356044,6.390468 -75.355955,6.390512 -75.355955,6.390512 -75.355786,6.390581 -75.355690,6.390567 -75.355690,6.390567 -75.355257,6.390531 -75.355079,6.390519 -75.354926,6.390509 -75.354926,6.390509 -75.354784,6.390518 -75.354641,6.390619 -75.354531,6.390735 -75.354412,6.390818 -75.354412,6.390818 -75.354379,6.390836 -75.354302,6.390878 -75.354141,6.390906 -75.354003,6.390925 -75.353888,6.391035 -75.353888,6.391035 -75.353792,6.391155 -75.353723,6.391270 -75.353703,6.391287 -75.353645,6.391335 -75.353554,6.391418 -75.353466,6.391482 -75.353333,6.391570 -75.353228,6.391644 -75.353131,6.391709 -75.353131,6.391709 -75.352998,6.391774 -75.352998,6.391774 -75.352906,6.391843 -75.352814,6.391948 -75.352814,6.391948 -75.352788,6.391964 -75.352676,6.392031 -75.352571,6.392105 -75.352397,6.392262 -75.352397,6.392262 -75.351974,6.392497 -75.351960,6.392506 -75.351629,6.392696 -75.351523,6.392758 -75.351523,6.392758 -75.351507,6.392767 -75.351477,6.392780 -75.351333,6.392840 -75.351261,6.392859 -75.351150,6.392888 -75.350916,6.392930 -75.350819,6.392940 -75.350720,6.392981 -75.350640,6.393027 -75.350640,6.393027 -75.350489,6.393094 -75.350317,6.393168 -75.350173,6.393254 -75.350013,6.393370 -75.349897,6.393516 -75.349897,6.393516 -75.349799,6.393655 -75.349785,6.393696 -75.349752,6.393791 -75.349706,6.393931 -75.349632,6.394056 -75.349516,6.394102 -75.349354,6.394114 -75.349232,6.394155 -75.349165,6.394258 -75.349060,6.394355 -75.348943,6.394382 -75.348804,6.394410 -75.348584,6.394446 -75.348410,6.394511 -75.348410,6.394511 -75.348265,6.394591 -75.348141,6.394979 -75.348069,6.395201 -75.347888,6.395197 -75.347788,6.395189 -75.347696,6.395183 -75.347576,6.395189 -75.347504,6.395197 -75.347344,6.395216 -75.347158,6.395252 -75.347158,6.395252 -75.347002,6.395305 -75.346801,6.395393 -75.346661,6.395486 -75.346530,6.395560 -75.346530,6.395560 -75.346388,6.395686 -75.346287,6.395785 -75.346287,6.395785 -75.346136,6.395914 -75.346001,6.396055 -75.345887,6.396150 -75.345761,6.396237 -75.345577,6.396348 -75.345577,6.396348 -75.345422,6.396467 -75.345330,6.396587 -75.345287,6.396666 -75.345287,6.396666 -75.345264,6.396763 -75.345253,6.396959 -75.345253,6.396959 -75.345221,6.397018 -75.345198,6.397061 -75.345141,6.397059 -75.345074,6.397050 -75.345024,6.397044 -75.344941,6.397046 -75.344842,6.397067 -75.344730,6.397082 -75.344601,6.397070 -75.344500,6.397031 -75.344437,6.396982 -75.344369,6.396929 -75.344267,6.396862 -75.344194,6.396814 -75.344194,6.396814 -75.344132,6.396766 -75.344132,6.396766 -75.343624,6.396459 -75.343624,6.396459 -75.343314,6.396335 -75.343229,6.396295 -75.343070,6.396271 -75.342944,6.396244 -75.342779,6.396219 -75.342779,6.396219 -75.342579,6.396210 -75.342579,6.396210 -75.342402,6.396199 -75.342258,6.396221 -75.342125,6.396228 -75.341998,6.396224 -75.341774,6.396222 -75.341588,6.396216 -75.341588,6.396216 -75.341392,6.396165 -75.341392,6.396165 -75.341358,6.396151 -75.341250,6.396107 -75.341009,6.395988 -75.340901,6.395949 -75.340901,6.395949 -75.340823,6.395919 -75.340737,6.395889 -75.340645,6.395864 -75.340645,6.395864 -75.340562,6.395827 -75.340511,6.395789 -75.340426,6.395741 -75.340338,6.395692 -75.340338,6.395692 -75.340213,6.395628 -75.340190,6.395619 -75.340170,6.395610 -75.340059,6.395548 -75.339950,6.395524 -75.339865,6.395497 -75.339865,6.395497 -75.339782,6.395471 -75.339782,6.395471 -75.339700,6.395453 -75.339116,6.395248 -75.339007,6.395225 -75.339007,6.395225 -75.338929,6.395210 -75.338848,6.395210 -75.338821,6.395218 -75.338747,6.395240 -75.338660,6.395277 -75.338660,6.395277 -75.338568,6.395333 -75.338568,6.395333 -75.338497,6.395400 -75.338453,6.395439 -75.338405,6.395483 -75.338304,6.395562 -75.338228,6.395636 -75.338228,6.395636 -75.338141,6.395712 -75.338014,6.395821 -75.337952,6.395870 -75.337872,6.395937 -75.337871,6.395938 -75.337836,6.395976 -75.337778,6.396030 -75.337725,6.396081 -75.337643,6.396148 -75.337617,6.396164 -75.337581,6.396187 -75.337275,6.396449 -75.337275,6.396449 -75.337215,6.396532 -75.337088,6.396711 -75.336961,6.396888 -75.336872,6.396985 -75.336805,6.397042 -75.336711,6.397147 -75.336598,6.397244 -75.336495,6.397362 -75.336495,6.397362 -75.336449,6.397417 -75.336427,6.397443 -75.336385,6.397493 -75.336342,6.397566 -75.336338,6.397571 -75.336266,6.397697 -75.336198,6.397799 -75.336198,6.397799 -75.336113,6.397868 -75.336032,6.397899 -75.336029,6.397900 -75.335986,6.397923 -75.335957,6.397936 -75.335926,6.397950 -75.335839,6.397996 -75.335443,6.398239 -75.334916,6.398563 -75.334703,6.398657 -75.334409,6.398682 -75.334175,6.398640 -75.334175,6.398640 -75.333865,6.398583 -75.333559,6.398492 -75.333231,6.398395 -75.333231,6.398395 -75.332831,6.398233 -75.332457,6.398100 -75.332169,6.397985 -75.332169,6.397985 -75.332028,6.397935 -75.331859,6.397875 -75.331772,6.397832 -75.331567,6.397692 -75.331489,6.397640 -75.331264,6.397486 -75.331176,6.397268 -75.331165,6.397130 -75.331159,6.397057 -75.331112,6.396886 -75.331106,6.396866 -75.331100,6.396842 -75.331115,6.396792 -75.331115,6.396791 -75.331115,6.396791 -75.331123,6.396769 -75.331126,6.396716 -75.331166,6.396649 -75.331168,6.396646 -75.331229,6.396528 -75.331296,6.396440 -75.331296,6.396440 -75.331335,6.396375 -75.331335,6.396375 -75.331406,6.396269 -75.331451,6.396187 -75.331470,6.396151 -75.331527,6.396027 -75.331562,6.395932 -75.331562,6.395932 -75.331605,6.395838 -75.331657,6.395707 -75.331657,6.395707 -75.331687,6.395607 -75.331687,6.395607 -75.331700,6.395514 -75.331700,6.395466 -75.331691,6.395430 -75.331686,6.395411 -75.331661,6.395372 -75.331661,6.395372 -75.331561,6.395283 -75.331524,6.395250 -75.331411,6.395186 -75.331352,6.395153 -75.331352,6.395153 -75.331244,6.395082 -75.331108,6.395015 -75.330963,6.394951 -75.330923,6.394927 -75.330853,6.394885 -75.330706,6.394807 -75.330510,6.394723 -75.330368,6.394650 -75.330368,6.394650 -75.330237,6.394584 -75.330087,6.394509 -75.330058,6.394495 -75.329927,6.394403 -75.329791,6.394286 -75.329791,6.394286 -75.329683,6.394179 -75.329593,6.394083 -75.329485,6.393977 -75.329404,6.393870 -75.329376,6.393788 -75.329375,6.393730 -75.329374,6.393702 -75.329415,6.393626 -75.329415,6.393626 -75.329463,6.393562 -75.329463,6.393562 -75.329465,6.393493 -75.329465,6.393493 -75.329426,6.393419 -75.329426,6.393419 -75.329332,6.393355 -75.329167,6.393262 -75.329167,6.393262 -75.329077,6.393221 -75.329077,6.393221 -75.329003,6.393180 -75.328870,6.393056 -75.328785,6.392933 -75.328749,6.392865 -75.328749,6.392865 -75.328685,6.392767 -75.327902,6.392579 -75.327806,6.392559 -75.327806,6.392559 -75.327477,6.392488 -75.327477,6.392488 -75.327332,6.392425 -75.327332,6.392425 -75.327181,6.392317 -75.327084,6.392221 -75.326994,6.392133 -75.326893,6.391980 -75.326862,6.391965 -75.326862,6.391965 -75.326799,6.391933 -75.326693,6.391928 -75.326597,6.391924 -75.326414,6.391931 -75.326411,6.391932 -75.326411,6.391932 -75.326252,6.391923 -75.326252,6.391923 -75.326110,6.391923 -75.326110,6.391923 -75.326095,6.391923 -75.325956,6.391926 -75.325798,6.391933 -75.325798,6.391933 -75.325681,6.391911 -75.325545,6.391867 -75.325545,6.391867 -75.325391,6.391809 -75.325258,6.391744 -75.325130,6.391701 -75.325042,6.391699 -75.324909,6.391718 -75.324705,6.391695 -75.324530,6.391712 -75.324393,6.391693 -75.324390,6.391692 -75.324264,6.391644 -75.324264,6.391644 -75.324084,6.391564 -75.324084,6.391564 -75.323949,6.391531 -75.323830,6.391572 -75.323717,6.391627 -75.323596,6.391685 -75.323439,6.391750 -75.323439,6.391750 -75.323240,6.391761 -75.323182,6.391738 -75.323096,6.391704 -75.322901,6.391627 -75.322461,6.391431 -75.322461,6.391431 -75.322383,6.391383 -75.322383,6.391383 -75.322273,6.391318 -75.322170,6.391274 -75.322133,6.391282 -75.322125,6.391284 -75.322110,6.391288 -75.322110,6.391288 -75.322110,6.391260 -75.322110,6.391260 -75.322109,6.391201 -75.322048,6.391052 -75.322048,6.391052 -75.322031,6.390934 -75.322021,6.390853 -75.322019,6.390840 -75.321998,6.390718 -75.321998,6.390718 -75.321993,6.390594 -75.321993,6.390594 -75.321991,6.390466 -75.322014,6.390340 -75.322014,6.390340 -75.322045,6.390233 -75.322045,6.390233 -75.322072,6.390086 -75.322079,6.389971 -75.322058,6.389834 -75.322058,6.389834 -75.322030,6.389673 -75.321992,6.389539 -75.321989,6.389526 -75.321954,6.389377 -75.321954,6.389377 -75.321891,6.389196 -75.321838,6.389039 -75.321778,6.388888 -75.321734,6.388757 -75.321734,6.388757 -75.321718,6.388661 -75.321718,6.388661 -75.321694,6.388537 -75.321694,6.388537 -75.321688,6.388026 -75.321688,6.388026 -75.321607,6.387956 -75.321394,6.387810 -75.321394,6.387810 -75.321321,6.387776 -75.321210,6.387707 -75.321204,6.387703 -75.321079,6.387613 -75.320909,6.387474 -75.320741,6.387384 -75.320741,6.387384 -75.320511,6.387264 -75.320344,6.387140 -75.320196,6.387051 -75.320075,6.387014 -75.320075,6.387014 -75.319861,6.386914 -75.319677,6.386921 -75.319677,6.386921 -75.319544,6.386915 -75.319411,6.386879 -75.319411,6.386879 -75.319296,6.386819 -75.319167,6.386744 -75.319167,6.386744 -75.319045,6.386613 -75.319045,6.386613 -75.318983,6.386517 -75.318930,6.386424 -75.318907,6.386382 -75.318862,6.386321 -75.318847,6.386299 -75.318806,6.386246 -75.318774,6.386192 -75.318774,6.386192 -75.318739,6.386123 -75.318739,6.386123 -75.318624,6.386066 -75.318493,6.386066 -75.317822,6.386228 -75.317822,6.386228 -75.317757,6.386257 -75.317555,6.386344 -75.317516,6.386360 -75.317482,6.386373 -75.317344,6.386413 -75.317156,6.386480 -75.317034,6.386521 -75.317034,6.386521 -75.316915,6.386565 -75.316828,6.386607 -75.316828,6.386607 -75.316736,6.386666 -75.316693,6.386731 -75.316693,6.386731 -75.316666,6.386844 -75.316666,6.386844 -75.316645,6.386979 -75.316645,6.386979 -75.316625,6.387062 -75.316554,6.387228 -75.316554,6.387228 -75.316465,6.387338 -75.316396,6.387400 -75.316358,6.387427 -75.316309,6.387463 -75.316210,6.387550 -75.316210,6.387550 -75.316184,6.387577 -75.316142,6.387619 -75.316096,6.387675 -75.316096,6.387675 -75.316034,6.387746 -75.315959,6.387834 -75.315842,6.387940 -75.315741,6.388044 -75.315613,6.388076 -75.315575,6.388068 -75.315486,6.388051 -75.315486,6.388051 -75.315353,6.387985 -75.315353,6.387985 -75.315218,6.387889 -75.315110,6.387783 -75.315062,6.387726 -75.315033,6.387692 -75.315003,6.387550 -75.315003,6.387550 -75.314994,6.387432 -75.314994,6.387432 -75.314966,6.387307 -75.314928,6.387234 -75.314924,6.387227 -75.314887,6.387178 -75.314678,6.387145 -75.314490,6.387269 -75.314490,6.387269 -75.314046,6.387622 -75.313873,6.388012 -75.313873,6.388100 -75.313873,6.388100 -75.313901,6.388201 -75.313975,6.388327 -75.313975,6.388327 -75.314032,6.388410 -75.314083,6.388531 -75.314083,6.388531 -75.314089,6.388547 -75.314148,6.388683 -75.314189,6.388767 -75.314189,6.388767 -75.314219,6.388930 -75.314261,6.389070 -75.314261,6.389070 -75.314250,6.389170 -75.314218,6.389277 -75.314218,6.389277 -75.314170,6.389392 -75.314115,6.389512 -75.314074,6.389611 -75.314074,6.389611 -75.314040,6.389698 -75.314040,6.389698 -75.314001,6.389795 -75.313979,6.389837 -75.313944,6.389905 -75.313903,6.389976 -75.313832,6.390094 -75.313784,6.390216 -75.313784,6.390216 -75.313776,6.390235 -75.313727,6.390347 -75.313666,6.390483 -75.313666,6.390483 -75.313592,6.390604 -75.313592,6.390604 -75.313489,6.390707 -75.313370,6.390762 -75.313341,6.390770 -75.313269,6.390791 -75.313161,6.390824 -75.313115,6.390839 -75.313033,6.390865 -75.312861,6.390917 -75.312807,6.390940 -75.312737,6.390970 -75.312692,6.391007 -75.312613,6.391072 -75.312421,6.391246 -75.312335,6.391294 -75.312210,6.391362 -75.312068,6.391438 -75.311752,6.391490 -75.311306,6.391373 -75.311306,6.391373 -75.310986,6.391137 -75.310986,6.391137 -75.310859,6.391080 -75.310859,6.391080 -75.310749,6.391034 -75.310749,6.391034 -75.310653,6.391007 -75.310552,6.390949 -75.310442,6.390918 -75.310371,6.390907 -75.310299,6.390896 -75.310173,6.390879 -75.310173,6.390879 -75.309987,6.390864 -75.309806,6.390848 -75.309707,6.390839 -75.309644,6.390833 -75.309516,6.390810 -75.309461,6.390791 -75.309429,6.390780 -75.309429,6.390780 -75.309321,6.390705 -75.309261,6.390644 -75.309217,6.390600 -75.309141,6.390504 -75.309082,6.390431 -75.308998,6.390343 -75.308929,6.390247 -75.308840,6.390125 -75.308840,6.390125 -75.308784,6.390040 -75.308738,6.389971 -75.308734,6.389965 -75.308734,6.389965 -75.308662,6.389841 -75.308600,6.389704 -75.308560,6.389679 -75.308503,6.389642 -75.308377,6.389647 -75.308269,6.389691 -75.308269,6.389691 -75.308095,6.389799 -75.307958,6.389926 -75.307887,6.390000 -75.307887,6.390000 -75.307868,6.390023 -75.307759,6.390159 -75.307662,6.390294 -75.307589,6.390366 -75.307507,6.390410 -75.307365,6.390481 -75.307227,6.390530 -75.307080,6.390588 -75.307080,6.390588 -75.306947,6.390659 -75.306816,6.390752 -75.306674,6.390867 -75.306674,6.390867 -75.306510,6.390994 -75.306510,6.390994 -75.306354,6.391262 -75.306354,6.391262 -75.306259,6.391609 -75.306375,6.391839 -75.306425,6.391864 -75.306518,6.391910 -75.306733,6.391910 -75.307056,6.391873 -75.307487,6.391908 -75.307666,6.392051 -75.307846,6.392266 -75.308134,6.392552 -75.308278,6.392875 -75.308530,6.393376 -75.308639,6.393735 -75.308747,6.394129 -75.308776,6.394271 -75.308820,6.394488 -75.309033,6.394726 -75.309107,6.394810 -75.309323,6.395097 -75.309467,6.395312 -75.309611,6.395563 -75.309720,6.395885 -75.309792,6.396244 -75.309794,6.396782 -75.309773,6.397015 -75.309759,6.397177 -75.309687,6.397356 -75.309473,6.397644 -75.309151,6.398003 -75.309009,6.398434 -75.308938,6.398757 -75.308866,6.398865 -75.308808,6.398923 -75.308651,6.399081 -75.308401,6.399333 -75.308043,6.399513 -75.307756,6.399621 -75.307218,6.399694 -75.306752,6.399767 -75.306394,6.399804 -75.306071,6.399841 -75.305676,6.399877 -75.305461,6.399950 -75.305388,6.399950 -75.305103,6.399951 -75.304780,6.399987 -75.304494,6.400239 -75.304484,6.400251 -75.304243,6.400563 -75.303886,6.400958 -75.303690,6.401048 -75.303492,6.401138 -75.303241,6.401283 -75.303210,6.401423 -75.303170,6.401606 -75.303135,6.401965 -75.303170,6.402155 -75.303208,6.402359 -75.303211,6.402368 -75.303352,6.402753 -75.303353,6.403105 -75.303353,6.403112 -75.303246,6.403399 -75.303308,6.403707 -75.303355,6.403937 -75.303427,6.404188 -75.303428,6.404475 -75.303321,6.404763 -75.303168,6.404873 -75.303070,6.404943 -75.302820,6.405087 -75.302497,6.405267 -75.302318,6.405339 -75.301816,6.405340 -75.301493,6.405341 -75.301206,6.405414 -75.301197,6.405421 -75.300992,6.405593 -75.300741,6.405809 -75.300454,6.405810 -75.300019,6.405556 -75.299844,6.405453 -75.299233,6.405095 -75.298808,6.404835 -75.298766,6.404809 -75.298617,6.404677 -75.298443,6.404523 -75.298083,6.404201 -75.297687,6.403664 -75.297543,6.403341 -75.297184,6.402983 -75.296537,6.402662 -75.295712,6.402449 -75.295496,6.402377 -75.294851,6.402307 -75.294528,6.402236 -75.294169,6.402165 -75.293702,6.402023 -75.292913,6.401809 -75.292231,6.401596 -75.291764,6.401561 -75.291226,6.401562 -75.290761,6.401922 -75.290260,6.402246 -75.290009,6.402606 -75.289723,6.402965 -75.289473,6.403324 -75.289451,6.403363 -75.289223,6.403756 -75.289098,6.403918 -75.288973,6.404079 -75.288651,6.404403 -75.288257,6.404763 -75.288043,6.405050 -75.288008,6.405552 -75.288152,6.405983 -75.288261,6.406341 -75.288226,6.406664 -75.288119,6.406880 -75.287797,6.407203 -75.287617,6.407311 -75.287474,6.407455 -75.287260,6.407671 -75.286973,6.407887 -75.286758,6.408103 -75.286544,6.408355 -75.286401,6.408606 -75.286222,6.408822 -75.285828,6.409181 -75.285256,6.409649 -75.284755,6.410081 -75.284325,6.410369 -75.283751,6.410299 -75.283464,6.410479 -75.283107,6.411089 -75.283000,6.411377 -75.282857,6.411592 -75.282607,6.411880 -75.282213,6.412347 -75.281999,6.412563 -75.281784,6.412815 -75.281498,6.413067 -75.281247,6.413283 -75.280781,6.413391 -75.280387,6.413428 -75.280064,6.413501 -75.279706,6.413717 -75.279348,6.413933 -75.279026,6.414221 -75.278847,6.414544 -75.278802,6.414751 -75.278776,6.414867 -75.278741,6.415046 -75.278598,6.415370 -75.278480,6.415414 -75.278311,6.415478 -75.278061,6.415730 -75.277774,6.415982 -75.277703,6.416197 -75.277704,6.416592 -75.277705,6.416951 -75.277562,6.417238 -75.277455,6.417418 -75.277205,6.417956 -75.277134,6.418100 -75.276741,6.418819 -75.276598,6.419178 -75.276312,6.419501 -75.276026,6.419968 -75.275955,6.420220 -75.275848,6.420543 -75.275670,6.421225 -75.275564,6.421656 -75.275457,6.421871 -75.275242,6.422123 -75.275171,6.422267 -75.274884,6.422554 -75.274634,6.422770 -75.274436,6.422856 -75.274383,6.422879 -75.274096,6.422951 -75.273848,6.422902 -75.273737,6.422880 -75.273450,6.422737 -75.273271,6.422702 -75.272984,6.422774 -75.272554,6.422990 -75.272089,6.423494 -75.271731,6.423818 -75.271445,6.424141 -75.271122,6.424321 -75.270692,6.424502 -75.270334,6.424574 -75.269939,6.424575 -75.269852,6.424535 -75.269472,6.424361 -75.269221,6.424218 -75.268970,6.424039 -75.268683,6.424004 -75.268216,6.423969 -75.267965,6.423862 -75.267534,6.423791 -75.267319,6.423684 -75.267103,6.423577 -75.266709,6.423470 -75.266271,6.423420 -75.266099,6.423400 -75.265740,6.423437 -75.265561,6.423581 -75.265311,6.423940 -75.265204,6.424407 -75.265205,6.424873 -75.265418,6.425165 -75.265493,6.425267 -75.265601,6.425446 -75.265746,6.425877 -75.265746,6.426056 -75.265818,6.426307 -75.265819,6.426738 -75.265785,6.426795 -75.265712,6.426917 -75.265354,6.426918 -75.265031,6.426883 -75.264528,6.426669 -75.264169,6.426490 -75.263810,6.426348 -75.263487,6.426312 -75.262913,6.426421 -75.262555,6.426745 -75.262233,6.427033 -75.261947,6.427285 -75.261661,6.427537 -75.261374,6.427788 -75.261052,6.428112 -75.260658,6.428436 -75.260336,6.428616 -75.259870,6.428797 -75.259547,6.428905 -75.259225,6.428942 -75.258759,6.429122 -75.258472,6.429230 -75.258078,6.429411 -75.257756,6.429770 -75.257542,6.430237 -75.257184,6.430740 -75.257114,6.431207 -75.257043,6.431673 -75.256972,6.431889 -75.256793,6.432176 -75.256543,6.432464 -75.256364,6.432608 -75.255898,6.432681 -75.255575,6.432681 -75.255288,6.432610 -75.254928,6.432360 -75.254569,6.432002 -75.254317,6.431823 -75.254030,6.431680 -75.253743,6.431645 -75.253600,6.431645 -75.253313,6.431754 -75.253062,6.431934 -75.252778,6.432286 -75.252597,6.432509 -75.252311,6.432761 -75.251881,6.432941 -75.251522,6.433050 -75.251442,6.433050 -75.251200,6.433050 -75.250913,6.433051 -75.250554,6.433016 -75.250195,6.432981 -75.249765,6.432946 -75.249227,6.433055 -75.248725,6.433271 -75.248259,6.433488 -75.248080,6.433703 -75.247830,6.433955 -75.247723,6.434206 -75.247508,6.434458 -75.247365,6.434710 -75.247187,6.434925 -75.246936,6.435177 -75.246650,6.435393 -75.246363,6.435537 -75.246004,6.435646 -75.245574,6.435826 -75.245288,6.435898 -75.245073,6.436006 -75.244907,6.436146 -75.244392,6.436582 -75.243891,6.436870 -75.243544,6.437306 -75.243462,6.437409 -75.243283,6.437589 -75.243068,6.437949 -75.243032,6.438171 -75.242998,6.438379 -75.242999,6.438846 -75.243143,6.439312 -75.243252,6.439814 -75.243397,6.440316 -75.243433,6.440746 -75.243364,6.441644 -75.243293,6.441895 -75.243079,6.442398 -75.242829,6.442865 -75.242542,6.443188 -75.242364,6.443655 -75.242364,6.443660 -75.242365,6.444086 -75.242363,6.444094 -75.242349,6.444156 -75.242258,6.444552 -75.242188,6.445198 -75.242082,6.445845 -75.241832,6.446312 -75.241510,6.446671 -75.241116,6.446995 -75.240651,6.447355 -75.240329,6.447822 -75.240115,6.448181 -75.239865,6.448792 -75.239687,6.449295 -75.239652,6.449797 -75.239581,6.450192 -75.239546,6.450515 -75.239439,6.450874 -75.239296,6.451197 -75.239046,6.451556 -75.238760,6.451916 -75.238331,6.452455 -75.238044,6.452743 -75.237794,6.453030 -75.237508,6.453497 -75.237329,6.453713 -75.237078,6.453857 -75.236792,6.454073 -75.236470,6.454540 -75.236363,6.454792 -75.236220,6.455151 -75.236114,6.455582 -75.236115,6.456012 -75.236223,6.456478 -75.236439,6.456837 -75.236691,6.457159 -75.237015,6.457625 -75.237135,6.457823 -75.237339,6.458162 -75.237555,6.458521 -75.237736,6.458951 -75.237809,6.459489 -75.237810,6.459919 -75.237787,6.460244 -75.237775,6.460422 -75.237490,6.461212 -75.237455,6.461535 -75.237563,6.461929 -75.237692,6.462217 -75.237707,6.462252 -75.237816,6.462539 -75.237709,6.462934 -75.237664,6.462979 -75.237423,6.463221 -75.237137,6.463688 -75.237098,6.463766 -75.236922,6.464119 -75.236745,6.464909 -75.236495,6.465412 -75.236316,6.465664 -75.235958,6.465880 -75.235528,6.466096 -75.235512,6.466098 -75.234990,6.466169 -75.234841,6.466237 -75.234596,6.466349 -75.234202,6.466601 -75.233951,6.466781 -75.233701,6.467033 -75.233342,6.467249 -75.233161,6.467318 -75.233056,6.467357 -75.232841,6.467573 -75.232518,6.467789 -75.232161,6.468113 -75.231946,6.468257 -75.231695,6.468616 -75.231554,6.469585 -75.231412,6.470267 -75.231413,6.470734 -75.231235,6.471165 -75.231021,6.471632 -75.231057,6.472026 -75.231238,6.472385 -75.231489,6.472635 -75.231849,6.472958 -75.232044,6.473074 -75.232208,6.473172 -75.232460,6.473566 -75.232783,6.473852 -75.232999,6.474211 -75.233179,6.474426 -75.233252,6.474748 -75.233253,6.475107 -75.233182,6.475466 -75.233003,6.475789 -75.232914,6.475909 -75.232788,6.476077 -75.232466,6.476293 -75.232191,6.476431 -75.231964,6.476545 -75.231463,6.476726 -75.231104,6.476906 -75.230963,6.477009 -75.230710,6.477194 -75.230388,6.477446 -75.229887,6.477806 -75.229600,6.478022 -75.229278,6.478202 -75.228987,6.478319 -75.228919,6.478346 -75.228453,6.478527 -75.228023,6.478599 -75.227664,6.478600 -75.227234,6.478565 -75.226983,6.478566 -75.226588,6.478459 -75.226301,6.478424 -75.226086,6.478424 -75.225835,6.478569 -75.225692,6.478820 -75.225426,6.479054 -75.225405,6.479072 -75.225190,6.479180 -75.224868,6.479181 -75.224580,6.479110 -75.224384,6.479026 -75.224329,6.479002 -75.224187,6.479003 -75.224042,6.479003 -75.223719,6.479040 -75.223519,6.479040 -75.223517,6.479041 -75.223496,6.479141 -75.223456,6.479227 -75.223432,6.479281 -75.223422,6.479359 -75.223382,6.479475 -75.223357,6.479584 -75.223320,6.479686 -75.223310,6.479723 -75.223283,6.479813 -75.223262,6.479899 -75.223150,6.480266 -75.222972,6.480455 -75.222797,6.480645 -75.222744,6.480724 -75.222694,6.480788 -75.222628,6.480944 -75.222597,6.481008 -75.222571,6.481092 -75.222516,6.481151 -75.222491,6.481275 -75.222456,6.481348 -75.222441,6.481417 -75.222410,6.481489 -75.222386,6.481575 -75.222365,6.481672 -75.222350,6.481723 -75.222295,6.481987 -75.222278,6.482070 -75.222264,6.482294 -75.222257,6.482374 -75.222248,6.482511 -75.222245,6.482609 -75.222251,6.482700 -75.222249,6.482808 -75.222236,6.482955 -75.222226,6.483067 -75.222057,6.483503 -75.222081,6.483775 -75.222201,6.484163 -75.222263,6.484275 -75.222297,6.484355 -75.222333,6.484408 -75.222400,6.484520 -75.222460,6.484570 -75.222495,6.484603 -75.222562,6.484620 -75.222632,6.484628 -75.222716,6.484671 -75.222787,6.484699 -75.222864,6.484727 -75.222986,6.484753 -75.223061,6.484778 -75.223143,6.484839 -75.223209,6.484911 -75.223227,6.485009 -75.223201,6.485108 -75.223180,6.485223 -75.223165,6.485300 -75.223158,6.485396 -75.223173,6.485452 -75.223172,6.485556 -75.223175,6.485664 -75.223241,6.485761 -75.223307,6.485829 -75.223324,6.485896 -75.223365,6.485987 -75.223371,6.486033 -75.223343,6.486159 -75.223301,6.486245 -75.223129,6.486453 -75.223035,6.486702 -75.223058,6.487027 -75.223052,6.487086 -75.223042,6.487142 -75.223022,6.487195 -75.223014,6.487270 -75.222976,6.487316 -75.222934,6.487418 -75.222911,6.487508 -75.222896,6.487586 -75.222868,6.487672 -75.222837,6.487769 -75.222809,6.487848 -75.222789,6.487902 -75.222761,6.487996 -75.222723,6.488069 -75.222663,6.488155 -75.222593,6.488253 -75.222562,6.488309 -75.222510,6.488385 -75.222464,6.488462 -75.222423,6.488528 -75.222356,6.488627 -75.222309,6.488686 -75.222253,6.488744 -75.222228,6.488880 -75.222334,6.488889 -75.222501,6.488934 -75.222584,6.488978 -75.222648,6.489035 -75.222692,6.489084 -75.222908,6.489277 -75.223390,6.489594 -75.223417,6.489612 -75.223523,6.489654 -75.223603,6.489685 -75.223669,6.489711 -75.223755,6.489738 -75.223828,6.489758 -75.223908,6.489784 -75.223951,6.489797 -75.224068,6.489833 -75.224140,6.489857 -75.224312,6.489919 -75.224383,6.489964 -75.224447,6.489983 -75.224532,6.490021 -75.224702,6.490136 -75.224764,6.490236 -75.224794,6.490336 -75.224815,6.490496 -75.224813,6.490601 -75.224797,6.490703 -75.224768,6.490783 -75.224727,6.490870 -75.224692,6.490942 -75.224684,6.491050 -75.224684,6.491308 -75.224807,6.491844 -75.224817,6.491922 -75.224821,6.492010 -75.224833,6.492097 -75.224844,6.492196 -75.224854,6.492311 -75.224852,6.492394 -75.224861,6.492531 -75.224868,6.492578 -75.224873,6.492696 -75.224873,6.492789 -75.224871,6.492887 -75.224876,6.492943 -75.224872,6.493090 -75.224879,6.493174 -75.224895,6.493241 -75.224909,6.493287 -75.224932,6.493361 -75.224962,6.493436 -75.224981,6.493479 -75.225015,6.493565 -75.225041,6.493647 -75.225075,6.493703 -75.225160,6.493803 -75.225227,6.493921 -75.225262,6.493955 -75.225278,6.494047 -75.225316,6.494138 -75.225339,6.494185 -75.225396,6.494242 -75.225477,6.494335 -75.225535,6.494430 -75.225628,6.494532 -75.225718,6.494636 -75.225774,6.494657 -75.225871,6.494675 -75.225926,6.494689 -75.225974,6.494697 -75.226032,6.494710 -75.226127,6.494712 -75.226214,6.494716 -75.226291,6.494721 -75.226366,6.494718 -75.226422,6.494741 -75.226464,6.494778 -75.226503,6.494833 -75.226538,6.494886 -75.226561,6.494935 -75.226591,6.494994 -75.226633,6.495101 -75.226658,6.495149 -75.226686,6.495241 -75.226703,6.495308 -75.226719,6.495364 -75.226761,6.495413 -75.226830,6.495462 -75.226904,6.495479 -75.226975,6.495476 -75.227026,6.495468 -75.227097,6.495454 -75.227166,6.495438 -75.227344,6.495446 -75.227518,6.495473 -75.227755,6.495644 -75.227970,6.495968 -75.227999,6.496015 -75.228035,6.496070 -75.228068,6.496110 -75.228125,6.496136 -75.228202,6.496156 -75.228250,6.496158 -75.228301,6.496156 -75.228358,6.496135 -75.228411,6.496111 -75.228499,6.496107 -75.228571,6.496125 -75.228619,6.496137 -75.228688,6.496155 -75.228769,6.496190 -75.228829,6.496232 -75.228873,6.496261 -75.228912,6.496290 -75.228956,6.496316 -75.229000,6.496345 -75.229076,6.496394 -75.229150,6.496435 -75.229240,6.496490 -75.229321,6.496543 -75.229434,6.496601 -75.229515,6.496625 -75.229624,6.496644 -75.229686,6.496658 -75.229743,6.496660 -75.229820,6.496651 -75.229884,6.496615 -75.229935,6.496584 -75.229979,6.496546 -75.230020,6.496500 -75.230066,6.496466 -75.230126,6.496435 -75.230233,6.496355 -75.230299,6.496348 -75.230382,6.496319 -75.230469,6.496317 -75.230597,6.496302 -75.230671,6.496288 -75.230781,6.496290 -75.230926,6.496335 -75.231045,6.496401 -75.231185,6.496458 -75.231316,6.496457 -75.231477,6.496437 -75.231621,6.496446 -75.231736,6.496474 -75.231909,6.496595 -75.231957,6.496624 -75.232033,6.496666 -75.232123,6.496697 -75.232220,6.496731 -75.232337,6.496733 -75.232435,6.496677 -75.232540,6.496595 -75.232602,6.496530 -75.232691,6.496486 -75.232774,6.496533 -75.232832,6.496600 -75.232873,6.496680 -75.232909,6.496795 -75.232952,6.496911 -75.232985,6.497036 -75.233027,6.497178 -75.233088,6.497327 -75.233212,6.497411 -75.233313,6.497410 -75.233464,6.497357 -75.233641,6.497269 -75.233853,6.497196 -75.234060,6.497150 -75.234189,6.497220 -75.234265,6.497303 -75.234353,6.497483 -75.234404,6.497612 -75.234506,6.497786 -75.234569,6.497930 -75.234592,6.498066 -75.234622,6.498195 -75.234658,6.498329 -75.234669,6.498456 -75.234707,6.498520 -75.234840,6.498616 -75.234932,6.498652 -75.235070,6.498605 -75.235193,6.498502 -75.235291,6.498393 -75.235357,6.498242 -75.235416,6.498126 -75.235496,6.498039 -75.235638,6.497946 -75.235716,6.497937 -75.235824,6.497946 -75.236008,6.497999 -75.236111,6.498059 -75.236227,6.498150 -75.236358,6.498288 -75.236444,6.498365 -75.236498,6.498422 -75.236552,6.498458 -75.236602,6.498486 -75.236694,6.498518 -75.236834,6.498558 -75.237055,6.498576 -75.237346,6.498589 -75.237534,6.498564 -75.237692,6.498548 -75.237865,6.498553 -75.237991,6.498571 -75.238067,6.498602 -75.238136,6.498548 -75.238273,6.498451 -75.238507,6.498337 -75.238635,6.498297 -75.238752,6.498293 -75.238894,6.498319 -75.239046,6.498357 -75.239273,6.498417 -75.239458,6.498484 -75.239729,6.498649 -75.239918,6.498765 -75.240125,6.498906 -75.240275,6.499036 -75.240432,6.499156 -75.240682,6.499276 -75.241340,6.499479 -75.241424,6.499506 -75.241599,6.499540 -75.241714,6.499544 -75.241905,6.499561 -75.242054,6.499584 -75.242199,6.499632 -75.242307,6.499719 -75.242388,6.499761 -75.242498,6.499793 -75.242624,6.499830 -75.242686,6.499819 -75.242736,6.499753 -75.242860,6.499635 -75.242942,6.499601 -75.242990,6.499581 -75.243050,6.499579 -75.243108,6.499595 -75.243192,6.499648 -75.243253,6.499741 -75.243267,6.499861 -75.243215,6.500008 -75.243091,6.500157 -75.242971,6.500314 -75.242910,6.500449 -75.242932,6.500498 -75.242977,6.500580 -75.243000,6.500620 -75.243124,6.500773 -75.243656,6.501119 -75.243799,6.501183 -75.243916,6.501251 -75.244027,6.501354 -75.244066,6.501411 -75.244094,6.501473 -75.244124,6.501537 -75.244179,6.501564 -75.244262,6.501597 -75.244379,6.501621 -75.244482,6.501651 -75.244558,6.501648 -75.244682,6.501629 -75.244824,6.501624 -75.244912,6.501602 -75.245132,6.501548 -75.245267,6.501511 -75.245422,6.501479 -75.245533,6.501512 
  </coordinates>
 </LinearRing> </outerBoundaryIs> </Polygon>
 
 <Style> 
  <PolyStyle>  
   <color>#a00000ff</color>
  <outline>0</outline>
  </PolyStyle> 
 </Style>
</Placemark>

</Document> </kml>