<?xml version="1.0" encoding="iso-8859-1"?>
<!-- Generator: Adobe Illustrator 21.1.0, SVG Export Plug-In . SVG Version: 6.00 Build 0)  -->
<!DOCTYPE svg PUBLIC "-//W3C//DTD SVG 1.1//EN" "http://www.w3.org/Graphics/SVG/1.1/DTD/svg11.dtd" [
	<!ENTITY ns_extend "http://ns.adobe.com/Extensibility/1.0/">
	<!ENTITY ns_ai "http://ns.adobe.com/AdobeIllustrator/10.0/">
	<!ENTITY ns_graphs "http://ns.adobe.com/Graphs/1.0/">
	<!ENTITY ns_vars "http://ns.adobe.com/Variables/1.0/">
	<!ENTITY ns_imrep "http://ns.adobe.com/ImageReplacement/1.0/">
	<!ENTITY ns_sfw "http://ns.adobe.com/SaveForWeb/1.0/">
	<!ENTITY ns_custom "http://ns.adobe.com/GenericCustomNamespace/1.0/">
	<!ENTITY ns_adobe_xpath "http://ns.adobe.com/XPath/1.0/">
	<!ENTITY st0 "fill:#EDB92B;">
	<!ENTITY st1 "opacity:0.57;fill:#F5F5F5;">
	<!ENTITY st2 "fill:#A8C235;">
	<!ENTITY st3 "fill:#FFFFFF;">
	<!ENTITY st4 "opacity:0.98;fill:#F5F5F5;">
	<!ENTITY st5 "fill:none;stroke:#D8D8D8;stroke-width:0.25;stroke-miterlimit:10;">
	<!ENTITY st6 "fill:#EDB92B;stroke:#EDB92B;stroke-width:0.15;stroke-miterlimit:10;">
	<!ENTITY st7 "fill:none;stroke:#EDB92B;stroke-width:0.15;stroke-miterlimit:10;">
]>
<svg version="1.1" id="Capa_1" xmlns:x="&ns_extend;" xmlns:i="&ns_ai;" xmlns:graph="&ns_graphs;"
	 xmlns="http://www.w3.org/2000/svg" xmlns:xlink="http://www.w3.org/1999/xlink" x="0px" y="0px" viewBox="0 0 64 64"
	 style="enable-background:new 0 0 64 64;" xml:space="preserve">
<metadata>
	<sfw  xmlns="&ns_sfw;">
		<slices></slices>
		<sliceSourceBounds  bottomLeftOrigin="true" height="440.5" width="1300.5" x="-832" y="46.5"></sliceSourceBounds>
	</sfw>
</metadata>
<g>
	<polygon style="&st0;" points="50.2,41.5 50.2,58.6 50.2,58.7 60.6,58.7 60.6,47.5 	"/>
	<polygon style="&st0;" points="3.4,58.7 13.8,58.7 13.8,58.6 13.8,41.4 3.4,47.5 	"/>
	<path style="&st0;" d="M15.7,35.6v23h10.7v-9.7c0-3.1,2.5-5.5,5.5-5.5h0.1c3.1,0,5.5,2.5,5.5,5.5v9.7h10.7v-23L32,22.1L15.7,35.6z"
		/>
	<polygon style="&st0;" points="8.5,33.2 11.2,36.6 32,19.5 52.8,36.6 55.5,33.2 33.3,14.9 33.3,10.8 37.3,10.8 37.3,8.2 33.3,8.2 
		33.3,5.3 30.7,5.3 30.7,8.2 26.7,8.2 26.7,10.8 30.7,10.8 30.7,14.9 	"/>
</g>
</svg>
