<?xml version="1.0" encoding="iso-8859-1"?>
<!-- Generator: Adobe Illustrator 21.1.0, SVG Export Plug-In . SVG Version: 6.00 Build 0)  -->
<!DOCTYPE svg PUBLIC "-//W3C//DTD SVG 1.1//EN" "http://www.w3.org/Graphics/SVG/1.1/DTD/svg11.dtd" [
	<!ENTITY ns_extend "http://ns.adobe.com/Extensibility/1.0/">
	<!ENTITY ns_ai "http://ns.adobe.com/AdobeIllustrator/10.0/">
	<!ENTITY ns_graphs "http://ns.adobe.com/Graphs/1.0/">
	<!ENTITY ns_vars "http://ns.adobe.com/Variables/1.0/">
	<!ENTITY ns_imrep "http://ns.adobe.com/ImageReplacement/1.0/">
	<!ENTITY ns_sfw "http://ns.adobe.com/SaveForWeb/1.0/">
	<!ENTITY ns_custom "http://ns.adobe.com/GenericCustomNamespace/1.0/">
	<!ENTITY ns_adobe_xpath "http://ns.adobe.com/XPath/1.0/">
	<!ENTITY st0 "fill:#EDB92B;">
	<!ENTITY st1 "opacity:0.57;fill:#F5F5F5;">
	<!ENTITY st2 "fill:#A8C235;">
	<!ENTITY st3 "fill:#FFFFFF;">
	<!ENTITY st4 "opacity:0.98;fill:#F5F5F5;">
	<!ENTITY st5 "fill:none;stroke:#D8D8D8;stroke-width:0.25;stroke-miterlimit:10;">
	<!ENTITY st6 "fill:#EDB92B;stroke:#EDB92B;stroke-width:0.15;stroke-miterlimit:10;">
	<!ENTITY st7 "fill:none;stroke:#EDB92B;stroke-width:0.15;stroke-miterlimit:10;">
]>
<svg version="1.1" id="Capa_1" xmlns:x="&ns_extend;" xmlns:i="&ns_ai;" xmlns:graph="&ns_graphs;"
	 xmlns="http://www.w3.org/2000/svg" xmlns:xlink="http://www.w3.org/1999/xlink" x="0px" y="0px" viewBox="0 0 64 64"
	 style="enable-background:new 0 0 64 64;" xml:space="preserve">
<metadata>
	<sfw  xmlns="&ns_sfw;">
		<slices></slices>
		<sliceSourceBounds  bottomLeftOrigin="true" height="440.5" width="1400.6" x="-832" y="46.5"></sliceSourceBounds>
	</sfw>
</metadata>
<g>
	<path style="&st0;" d="M58.3,48.2L58.3,48.2V36.7l-1.5-9H42.4l4.7,3.5v5.5l-3-2.2v1.1h-0.9v12.6h-0.9V34.3h0.9v-1.7h-1.4l-10.5-7.7
		l-10.1,7.9H20v1.7h1v13.6h-1V35.7h-1V35l-2.1,1.8v-5.6l4.3-3.5H6.3l-1.5,9v11.5H4v4.3h56v-4.3H58.3z M11.4,45.9h-5v-2.7h5V45.9z
		 M11.4,41.5h-5v-2.7h5V41.5z M13.5,45.9v-2.7h5v2.7H13.5z M13.5,41.5v-2.7h5v2.7H13.5z M31.5,28.3c1.1,0,2,0.9,2,2c0,1.1-0.9,2-2,2
		c-1.1,0-2-0.9-2-2C29.5,29.2,30.4,28.3,31.5,28.3z M39.5,48.1h-1.1V35.7H24.2v12.5h-1V34.5h1v-0.6h14.7v0.5h0.6V48.1z M49.1,45.6
		h-5v-2.7h5V45.6z M49.1,41.3h-5v-2.7h5V41.3z M56.2,45.6h-5v-2.7h5V45.6z M56.2,41.3h-5v-2.7h5V41.3z M31.3,20.3H31v-8.2h0.6v0.2
		c0.7,0.3,2.4,0.9,3.3-0.2c1.2-1.3,3.4,0,3.4,0v3.8c0,0-1.7-1.4-3.4,0c-1.2,1.1-2.7,0.5-3.3,0.2v4.2v0H31.3l14.8,11.1v3.2l-15-11.1
		L17.8,34.5v-3.2L31.3,20.3z"/>
</g>
</svg>
